5 AETAS BANGKOK #3120	BANGKOK
4 ADRIATIC PALACE HOTEL BANGKOK #2	BANGKOK
5 AMARI WATERGATE BANGKOK #8	BANGKOK
5 ANANTARA BANGKOK RIVERSIDE RESORT & SPA #9	BANGKOK
5 ANANTARA BANGKOK SATHORN #10	BANGKOK
5 Anantara Siam Bangkok Hotel (ex. Four Season) #48	BANGKOK
5 BANGKOK MARRIOTT HOTEL SUKHUMVIT #5002	BANGKOK
5 BANYAN TREE BANGKOK #22	BANGKOK
5 BERKELEY HOTEL PRATUNAM (THE) #3121	BANGKOK
5 BW PREMIER AMARANTH SUVARNABHUMI AIRPORT #24	BANGKOK
5 CENTARA GRAND & BANGKOK CONVENTION CENTRE AT CENTRALWORLD #29	BANGKOK
5 CENTARA GRAND AT CENTRAL PLAZA LADPRAO #28	BANGKOK
5 CHATRIUM HOTEL RIVERSIDE BANGKOK #33	BANGKOK
5 CONRAD BANGKOK #35	BANGKOK
5 DUSIT THANI BANGKOK #40	BANGKOK
5 GRAND HYATT ERAWAN BANGKOK #52	BANGKOK
5 GRAND SUKHUMVIT HOTEL BANGKOK MANAGED BY ACCOR #3133	BANGKOK
5 Grande Centre Point Hotel Terminal 21 #3136	BANGKOK
5 Hansar Bangkok Hotel #3137	BANGKOK
5 HOTEL MUSE BANGKOK LANGSUAN #60	BANGKOK
5 HUA CHANG HERITAGE HOTEL #9458551	BANGKOK
5 INTERCONTINENTAL BANGKOK #65	BANGKOK
5 JW MARRIOTT BANGKOK #9458552	BANGKOK
5 LANDMARK BANGKOK (THE) #70	BANGKOK
5 LE MERIDIEN BANGKOK #71	BANGKOK
5 LE MERIDIEN SUVARNABHUMI, BANGKOK GOLF RESORT & SPA #3141	BANGKOK
5 MANDARIN ORIENTAL BANGKOK #73	BANGKOK
5 MARRIOTT EXECUTIVE APARTMENTS SATHORN VISTA #75	BANGKOK
5 Metropolitan Bangkok Hotel #3143	BANGKOK
5 MILLENNIUM HILTON BANGKOK #76	BANGKOK
5 MOVENPICK HOTEL SUKHUMVIT 15 #9458553	BANGKOK
5 OKURA PRESTIGE BANGKOK (THE) #91	BANGKOK
5 ORIENTAL RESIDENCE BANGKOK #92	BANGKOK
5 PENINSULA BANGKOK (THE) #94	BANGKOK
5 PLAZA ATHENEE BANGKOK, A ROYAL MERIDIEN HOTEL #99	BANGKOK
5 PULLMAN BANGKOK HOTEL G #104	BANGKOK
5 PULLMAN BANGKOK KING POWER #105	BANGKOK
5 RADISSON BLU PLAZA BANGKOK #9458554	BANGKOK
5 RADISSON SUITES BANGKOK  SUKHUMVIT #4019	BANGKOK
5 Ramada Plaza Bangkok Menam Riverside #3152	BANGKOK
5 RENAISSANCE BANGKOK RATCHAPRASONG HOTEL #110	BANGKOK
5 ROYAL ORCHID SHERATON HOTEL & TOWERS #114	BANGKOK
5 SHANGRI-LA HOTEL, BANGKOK #126	BANGKOK
5 SHERATON GRANDE SUKHUMVIT, A LUXURY COLLECTION #127	BANGKOK
5 SIAM HOTEL (THE) #3156	BANGKOK
5 SIAM KEMPINSKI HOTEL BANGKOK #129	BANGKOK
5 SIVATEL BANGKOK #131	BANGKOK
5 SOFITEL BANGKOK SUKHUMVIT HOTEL #132	BANGKOK
5 SOFITEL SO BANGKOK #133	BANGKOK
5 ST. REGIS BANGKOK (THE) #135	BANGKOK
5 SUKHOTHAI BANGKOK (THE) #9458555	BANGKOK
5 SUKOSOL, BANGKOK (THE) #136	BANGKOK
5 SWISSOTEL NAI LERT PARK #138	BANGKOK
5 TOWER CLUB AT LEBUA #144	BANGKOK
5 URBANA SATHORN HOTEL #9458556	BANGKOK
5 VIE HOTEL BANGKOK #9458557	BANGKOK
5 W BANGKOK #150	BANGKOK
5 WESTIN GRANDE SUKHUMVIT(THE) #9458558	BANGKOK
4S AVANI ATRIUM BANGKOK #5	BANGKOK
4S Chatrium Residence Bangkok Sathorn #3125	BANGKOK
4S EASTIN GRAND HOTEL SATHORN BANGKOK #42	BANGKOK
4S SIAM@SIAM DESIGN HOTEL, BANGKOK #130	BANGKOK
4 ADRIATIC PALACE HOTEL BANGKOK #9458604	BANGKOK
4 AMARI BOULEVARD BANGKOK #6	BANGKOK
4 AMARI DON MUANG AIRPORT BANGKOK #7	BANGKOK
4 A-ONE BANGKOK HOTEL #11	BANGKOK
4 A-ONE BOUTIQUE HOTEL #12	BANGKOK
4 ARNOMA HOTEL #13	BANGKOK
4 BAIYOKE SKY HOTEL #17	BANGKOK
4 Best Western Plus Grand Howard #3122	BANGKOK
4 CENTARA WATERGATE PAVILLION HOTEL BANGKOK #30	BANGKOK
4 CENTRE POINT HOTEL PRATUNAM #3124	BANGKOK
4 COURTYARD BY MARRIOTT BANGKOK #38	BANGKOK
4 DOUBLETREE RESORT BY HILTON SUKHUMVIT #9458559	BANGKOK
4 DREAM BANGKOK #39	BANGKOK
4 Dusit Princess Srinakarin Hotel #3127	BANGKOK
4 EASTIN HOTEL MAKKASAN #3128	BANGKOK
4 Emerald Hotel - Bangkok #3129	BANGKOK
4 Furama Silom Hotel Bangkok #3130	BANGKOK
4 Golden Tulip Sovereign Hotel #3131	BANGKOK
4 GRAND SWISS HOTEL BANGKOK #3134	BANGKOK
4 HOLIDAY INN BANGKOK #56	BANGKOK
4 HOLIDAY INN BANGKOK SILOM HOTEL #58	BANGKOK
4 HOLIDAY INN BANGKOK SUKHUMVIT 22 #9458560	BANGKOK
4 HOLIDAY INN EXPRESS BANGKOK SIAM #57	BANGKOK
4 I RESIDENCE HOTEL SILOM #3138	BANGKOK
4 INDRA REGENT HOTEL #64	BANGKOK
4 MANDARIN HOTEL MANAGED BY CENTRE POINT #9458561	BANGKOK
4 MERCURE BANGKOK SIAM #3142	BANGKOK
4 Miracle Grand Convention Hotel #3144	BANGKOK
4 Mode Sathorn Hotel Bangkok #78	BANGKOK
4 MONTIEN HOTEL (THE) #3146	BANGKOK
4 MONTIEN REVERSIDE HOTEL #9458562	BANGKOK
4 NARAI HOTEL #85	BANGKOK
4 NOVOTEL BANGKOK BANGNA #1484	BANGKOK
4 NOVOTEL BANGKOK FENIX SILOM #88	BANGKOK
4 NOVOTEL BANGKOK IMPACT HOTEL #1485	BANGKOK
4 NOVOTEL BANGKOK ON SIAM SQUARE #87	BANGKOK
4 NOVOTEL BANGKOK PLATINUM #89	BANGKOK
4 NOVOTEL SUVARNABHUMI AIRPORT HOTEL #90	BANGKOK
4 PARK PLAZA BANGKOK #9458563	BANGKOK
4 PATHUMWAN PRINCESS HOTEL #93	BANGKOK
4 PRINCE PALACE HOTEL #101	BANGKOK
4 PRINCETON BANGKOK #3151	BANGKOK
4 RAMADA D’MA BANGKOK #108	BANGKOK
4 ROYAL PRINCESS LARN LUANG, BANGKOK #115	BANGKOK
4 Siam Heritage Boutique Suite #3155	BANGKOK
4 TWIN TOWERS HOTEL (THE) #145	BANGKOK
4 U Sukhumvit Hotel Bangkok #3157	BANGKOK
3S ASIA HOTEL BANGKOK #15	BANGKOK
3S HOLIDAY INN EXPRESS BANGKOK SUKHUMVIT 1 #9458564	BANGKOK
3 BAIYOKE BOUTIQUE HOTEL #16	BANGKOK
3 BAIYOKE SUITE HOTEL #18	BANGKOK
3 BANGKOK PALACE HOTEL #21	BANGKOK
3 CENTRE POINT SILOM #9458565	BANGKOK
3 Citin Pratunam #3226	BANGKOK
3 CONVENIENT PARK BANGKOK #9458566	BANGKOK
3 CONVENIENT RESORT SUVARNABHUMI #9458567	BANGKOK
3 FIRST HOTEL BANGKOK #9458568	BANGKOK
3 Glow Pratunam #3126	BANGKOK
3 GRAND ALPINE HOTEL #3132	BANGKOK
3 GRAND TOWER INN HOTEL #3135	BANGKOK
3 HOTEL DE BANGKOK #9458569	BANGKOK
3 IBIS BANGKOK NANA #61	BANGKOK
3 IBIS BANGKOK RIVERSIDE #62	BANGKOK
3 IBIS BANGKOK SATHORN #63	BANGKOK
3 IBIS BANGKOK SIAM #3139	BANGKOK
3 Le Fenix Sukhumvit #3140	BANGKOK
3 Miracle Suvarnabhumi Airport #3145	BANGKOK
3 Novotel Bangkok Ploenchit Sukhumvit Hotel #3147	BANGKOK
3 PINNACLE LUMPINEE PARK HOTEL #3149	BANGKOK
3 PRATUNAM CITY INN #9458570	BANGKOK
3 Regent Suvarnabhumi #3154	BANGKOK
3 ROYAL BENJA HOTEL #9458571	BANGKOK
3 SEASONS BANGKOK HUAMARK (THE) #3	BANGKOK
3 SEASONS BANGKOK SIAM (THE) #4	BANGKOK
3 WHITE PALACE BANGKOK #9458572	BANGKOK
2 ROYAL ASIA LODGE(THE) #9458573	BANGKOK
5 AMARI OCEAN PATTAYA #161	PATTAYA
5 CAPE DARA RESORT #193	PATTAYA
5 CENTARA GRAND MIRAGE BEACH RESORT PATTAYA #194	PATTAYA
5 CENTARA GRAND MODUS RESORT PATTAYA #1643	PATTAYA
5 CENTARA GRAND PHRATAMNAK PATTAYA #3167	PATTAYA
5 DUSIT THANI PATTAYA #210	PATTAYA
5 HILTON PATTAYA #231	PATTAYA
5 Hotel Baraquda Pattaya #209	PATTAYA
5 InterContinental Pattaya Resort (ex. Sheraton Pattaya) #345	PATTAYA
5 Mövenpick Siam Hotel Pattaya #4008	PATTAYA
5 PATTAYA MARRIOTT RESORT & SPA #302	PATTAYA
5 PATTAYA SEA SAND SUN RESORT & SPA #304	PATTAYA
5 PULLMAN PATTAYA HOTEL G #311	PATTAYA
5 RAVINDRA BEACH RESORT & SPA #314	PATTAYA
5 ROYAL CLIFF BEACH HOTEL @ ROYAL CLIFF HOTELS GROUP #319	PATTAYA
5 ROYAL CLIFF BEACH TERRACE @ ROYAL CLIFF HOTELS GROUP #320	PATTAYA
5 ROYAL CLIFF GRAND HOTEL @ ROYAL CLIFF HOTELS GROUP #321	PATTAYA
5 ROYAL WING SUITES & SPA @ ROYAL CLIFF HOTELS GROUP #326	PATTAYA
5 Z THROUGH BY THE ZIGN #382	PATTAYA
5 ZIGN HOTEL (THE) #383	PATTAYA
4S DOR-SHADA RESORT BY THE SEA #207	PATTAYA
4S GARDEN CLIFF RESORT & SPA, PATTAYA #222	PATTAYA
4S HARD ROCK HOTEL PATTAYA #230	PATTAYA
4S HOLIDAY INN PATTAYA #233	PATTAYA
4 ADRIATIC PALACE #155	PATTAYA
4 AIYARA GRAND HOTEL #156	PATTAYA
4 AMARI GARDEN PATTAYA #1820	PATTAYA
4 AMARI NOVA SUITES #160	PATTAYA
4 AMBASSADOR CITY JOMTIEN (OCEAN WING) #163	PATTAYA
4 A-ONE PATTAYA BEACH RESORT #164	PATTAYA
4 A-ONE THE ROYAL CRUISE HOTEL PATTAYA #165	PATTAYA
4 ASIA PATTAYA HOTEL #167	PATTAYA
4 AT MIND SERVICED RESIDENCE PATTAYA #168	PATTAYA
4 AVALON BEACH RESORT #169	PATTAYA
4 AYA BOUTIQUE HOTEL PATTAYA #170	PATTAYA
4 BAYVIEW PATTAYA (THE) #176	PATTAYA
4 CENTARA AVENUE HOTEL PATTAYA #9458580	PATTAYA
4 CENTARA NOVA HOTEL & SPA PATTAYA #3168	PATTAYA
4 CENTARA PATTAYA HOTEL #197	PATTAYA
4 CENTRA MARIS RESORT JOMTIEN #9458581	PATTAYA
4 CHOLCHAN PATTAYA RESORT #200	PATTAYA
4 COURTYARD by MARRIOTT SOUTH PATTAYA #350	PATTAYA
4 D VAREE JOMTIEN BEACH, PATTAYA #1651	PATTAYA
4 FAIRTEX SPORT CLUB & HOTEL #219	PATTAYA
4 FIFTH JOMTIEN THE RESIDENCE #3173	PATTAYA
4 GARDEN SEA VIEW RESORT #223	PATTAYA
4 HERITAGE PATTAYA BEACH RESORT (THE) #1672	PATTAYA
4 HOLIDAY RESORT (THE) #9458582	PATTAYA
4 Hotel J Pattaya #3176	PATTAYA
4 HOTEL VISTA #9458583	PATTAYA
4 INTIMATE HOTEL #238	PATTAYA
4 JOMTIEN PALM BEACH HOTEL & RESORT #244	PATTAYA
4 LAGUNA HEIGHTS #3181	PATTAYA
4 LAKKAHANA POOLSIDE RESORT #3182	PATTAYA
4 LK RENEISSANCE #9458584	PATTAYA
4 LK ROYAL SUITE #255	PATTAYA
4 LONG BEACH GARDEN HOTEL & SPA #259	PATTAYA
4 MERCURE PATTAYA HOTEL #267	PATTAYA
4 Mercure Pattaya Ocean Resort #3420	PATTAYA
4 MONTIEN HOTEL PATTAYA (THE) #9458603	PATTAYA
4 NOVA GOLD PATTAYA #285	PATTAYA
4 NOVA PLATINUM HOTEL #288	PATTAYA
4 OCEAN MARINA YACHT CLUB #290	PATTAYA
4 PALM GROVE RESORT #294	PATTAYA
4 PATTAYA DISCOVERY BEACH HOTEL #298	PATTAYA
4 RABBIT RESORT #313	PATTAYA
4 SIAM BAYSHORE PATTAYA #346	PATTAYA
4 SIAM@SIAM DESIGN HOTEL PATTAYA #1833	PATTAYA
4 SUNSET PARK RESORT & SPA #357	PATTAYA
4 Trio Hotel  #3218	PATTAYA
4 WAY HOTEL #373	PATTAYA
4 WELCOME WORLD BEACH RESORT & SPA #376	PATTAYA
4 WOODLANDS HOTEL & RESORT #379	PATTAYA
4 WOODLANDS SUITES SERVICED RESIDENCES #380	PATTAYA
4 WORABURI THE RITZ #1709	PATTAYA
3S BARON BEACH HOTEL #174	PATTAYA
3S BELLA VILLA CABANA #180	PATTAYA
3S COSY BEACH HOTEL #202	PATTAYA
3S FOUR SEASONS PLACE #220	PATTAYA
3S GRAND BELLA HOTEL #1854	PATTAYA
3S LK THE EMPRESS #257	PATTAYA
3S MANITA BOUTIQUE HOTEL #3185	PATTAYA
3S MARKLAND BOUTIQUE HOTEL (THE) #264	PATTAYA
3S MIRACLE SUITE #272	PATTAYA
3S PRIMA VILLA HOTEL #310	PATTAYA
3S SARITA CHALET & SPA #332	PATTAYA
3S STAY HOTEL (THE) #3212	PATTAYA
3 247 BOUTIQUE HOTEL #3159	PATTAYA
3 ABRICOLE PATTAYA  (PATTAYA HILL RESORT) #1635	PATTAYA
3 AIYARA PALACE HOTEL #157	PATTAYA
3 Aiyaree Place Hotel #3160	PATTAYA
3 AMBASSADOR CITY JOMTIEN #162	PATTAYA
3 A-ONE STAR HOTEL #3162	PATTAYA
3 ARECA LODGE #166	PATTAYA
3 BAAN KHUN NINE #3163	PATTAYA
3 BALITAYA RESORT NAKLUA 12 #9458585	PATTAYA
3 BAN NAM MAO RESORT #173	PATTAYA
3 BASAYA BEACH HOTEL & RESORT #175	PATTAYA
3 BAYBEACH RESORT JOMTIEN #9458586	PATTAYA
3 BEACH GARDEN RESORT(THE) #9458587	PATTAYA
3 BELLA EXPRESS #179	PATTAYA
3 BELLA VILLA METRO #181	PATTAYA
3 BELLA VILLA PRIMA #182	PATTAYA
3 BEST BELLA PATTAYA #190	PATTAYA
3 BEVERLY PLAZA #185	PATTAYA
3 Boss Suites Pattaya #3166	PATTAYA
3 BOTANY BEACH RESORT #187	PATTAYA
3 BOUTIQUE HOTEL #188	PATTAYA
3 BOUTIQUE PARADISE HOTEL #189	PATTAYA
3 BURITARA RESORT & SPA JOMTIEN #9458588	PATTAYA
3 CAESAR PALACE HOTEL #191	PATTAYA
3 CAMELOT HOTEL PATTAYA #192	PATTAYA
3 CENTRAL PATTAYA GARDEN RESORT #9458589	PATTAYA
3 CENTURY PATTAYA HOTEL #1645	PATTAYA
3 CHAIYAPRUEK SUITES #9458590	PATTAYA
3 Citrus Parc Hotel #3170	PATTAYA
3 CROWN PATTAYA BEACH HOTEL #204	PATTAYA
3 CRYSTAL PALACE PATTAYA #205	PATTAYA
3 D@SEA #9458591	PATTAYA
3 DIANA GARDEN RESORT #9458592	PATTAYA
3 DRAGON BEACH HOTEL #208	PATTAYA
3 DREAM AT WONGAMAT HOTEL #3172	PATTAYA
3 DUO ASAVA RESIDENCE #9458593	PATTAYA
3 EMERALD PALACE HOTEL #9458594	PATTAYA
3 EURASIA SERVICED RESIDENCE #215	PATTAYA
3 EUROSTAR JOMTIEN BEACH HOTEL & SPA #218	PATTAYA
3 FOURTH PRATUMNAK(THE) #9458595	PATTAYA
3 GOLDEN BEACH PATTAYA #9458596	PATTAYA
3 GOLDEN CLIFF HOUSE #225	PATTAYA
3 GOLDEN SEA PATTAYA #3174	PATTAYA
3 GRAND JOMTIEN PALACE #228	PATTAYA
3 GRAND SOLE HOTEL #1670	PATTAYA
3 GREEN PARK RESORT (THE) #229	PATTAYA
3 HILL FRESCO, PATTAYA HOTEL #340	PATTAYA
3 HONEY INN PATTAYA #3175	PATTAYA
3 HOTEL TROPICANA #236	PATTAYA
3 IBIS PATTAYA #237	PATTAYA
3 iCHECK INN JOMTIEN PATTAYA #9458527	PATTAYA
3 Inn House #3178	PATTAYA
3 INN RESIDENCE SERVICED SUITES #3821	PATTAYA
3 Innplace Serviced Residence (ex. Inn Place) #3179	PATTAYA
3 J.A. VILLA PATTAYA #3180	PATTAYA
3 J.P.VILLA PATTAYA #248	PATTAYA
3 JOMTIEN GARDEN HOTEL & RESORT #241	PATTAYA
3 JOMTIEN HISOTEL #3197	PATTAYA
3 JOMTIEN HOLIDAY HOTEL #242	PATTAYA
3 JOMTIEN PLAZA RESIDENCE #245	PATTAYA
3 JOMTIEN THANI HOTEL #246	PATTAYA
3 JOMTIEN TWELVE (THE) #247	PATTAYA
3 JOY RESIDENCE HOTEL #3171	PATTAYA
3 LANTANA PATTAYA HOTEL & RESORT #249	PATTAYA
3 LEE GARDEN RESORT #3183	PATTAYA
3 LEK VILLA #1681	PATTAYA
3 LEMON GRASS RETREAT #3815	PATTAYA
3 LK LEGEND #251	PATTAYA
3 LK METROPOLE #252	PATTAYA
3 LK PARAGON #253	PATTAYA
3 LK ROYAL WING #256	PATTAYA
3 LOMA RESORT & SPA #258	PATTAYA
3 LUCKY VIEW HOTEL #1682	PATTAYA
3 Magnolias Pattaya Boutique Resort #3184	PATTAYA
3 MANTRA PURA RESORT PATTAYA #3186	PATTAYA
3 MERMAIDS BEACH RESORT JOMTIEN #3187	PATTAYA
3 MID TOWN INN #3188	PATTAYA
3 MIKE BEACH RESORT PATTAYA #3189	PATTAYA
3 MIKE HOTEL #269	PATTAYA
3 MIND RESORT PATTAYA #271	PATTAYA
3 MOUNTAIN BEACH HOTEL #275	PATTAYA
3 NAKLUA BEACH RESORT #277	PATTAYA
3 NARIS ART HOTEL #3191	PATTAYA
3 NATURAL PARK RESORT #280	PATTAYA
3 NAUTICAL INN HOTEL #281	PATTAYA
3 NEO PATTAYA #282	PATTAYA
3 Neta Resort Pattaya (ex. BALITAYA RESORT PATTAYA) #172	PATTAYA
3 NIRVANA BOUTIQUE SUITES #3192	PATTAYA
3 NOW HOTEL (THE) #289	PATTAYA
3 OZO PATTAYA #3193	PATTAYA
3 PACIFIC JOMTIEN #9458597	PATTAYA
3 PAGE 10 HOTEL #293	PATTAYA
3 Park Hotel (The) #3194	PATTAYA
3 PATTAYA BAY HOTEL #9458598	PATTAYA
3 Pattaya Bay Resort #3195	PATTAYA
3 PATTAYA CENTRE HOTEL #3196	PATTAYA
3 PATTAYA GARDEN HOTEL #299	PATTAYA
3 Pattaya International Lodge #3201	PATTAYA
3 PATTAYA PARK BEACH RESORT #303	PATTAYA
3 PERFECT BOUTIQUE HOTEL #3200	PATTAYA
3 PHUVIEWTALAY RESORT #306	PATTAYA
3 PINEWOOD RESIDENCE PATTAYA #307	PATTAYA
3 PINNACLE GRAND JOMTIEN RESORT & SPA #4009	PATTAYA
3 Piyada Residence Pattaya  #3202	PATTAYA
3 Plumeria Serviced Apartment Pattaya #3203	PATTAYA
3 RED Planet Pattaya (ex.  Tune Hotel Pattaya) #367	PATTAYA
3 RITA RESORT & RESIDENCE #315	PATTAYA
3 ROME BOUTIQUE HOTEL & SPA PATTAYA #3204	PATTAYA
3 ROMEO PALACE HOTEL (THE) #316	PATTAYA
3 ROSE BAY RESORT, PATTAYA #317	PATTAYA
3 ROYAL ORCHID RESORT PATTAYA #1692	PATTAYA
3 ROYAL PALACE HOTEL #323	PATTAYA
3 ROYAL TWINS PALACE HOTEL #325	PATTAYA
3 RS. SEASIDE JOMTIEN #327	PATTAYA
3 SABAI EMPRESS #3205	PATTAYA
3 SABAI LODGE #328	PATTAYA
3 SABAI RESORT #329	PATTAYA
3 SABAI WING #3206	PATTAYA
3 SANDALAY RESORT PATTAYA #331	PATTAYA
3 SEA BREEZE JOMTIEN RESORT #338	PATTAYA
3 SEA LODGE HOTEL #339	PATTAYA
3 SEA ME SPRING HOTEL #3208	PATTAYA
3 SEA ME SPRING TOO HOTEL #3209	PATTAYA
3 SERENE SANDS HEALTH RESORT #342	PATTAYA
3 SERI PLACE HOTEL #3210	PATTAYA
3 SHAKESPEARE HOTEL #3211	PATTAYA
3 SPLENDID RESORT@JOMTIEN #352	PATTAYA
3 Sun Resort & Spa #3214	PATTAYA
3 SUN XCLUSIVE (THE) #355	PATTAYA
3 SUNSET VILLAGE BEACH RESORT #358	PATTAYA
3 SUNSHINE GARDEN RESORT #359	PATTAYA
3 SUNSHINE HOTEL & RESIDENCES #360	PATTAYA
3 SUNSHINE VISTA HOTEL #361	PATTAYA
3 Thai Pura Resort  #3217	PATTAYA
3 TSIX5 HOTEL #366	PATTAYA
3 Twin Palms Resort Pattaya  #3220	PATTAYA
3 V8 SEAVIEW JOMTIEN #369	PATTAYA
3 Villa Thongbura #3221	PATTAYA
3 VOGUE HOTEL PATTAYA #372	PATTAYA
3 WELCOME JOMTIEN BEACH HOTEL #374	PATTAYA
3 WELCOME JOMTIEN BEACH PLACE #9458599	PATTAYA
3 WELCOME PLAZA HOTEL #375	PATTAYA
3 WINDMILL RESORT HOTEL #377	PATTAYA
3 WIZ HOTEL #3225	PATTAYA
3 WONGAMAT PRIVACY RESIDENCE #378	PATTAYA
2S BELLA VILLA SERVICE APARTMENT #183	PATTAYA
2 DEEDEN PATTAYA RESORT #100007	PATTAYA
2 EMERALD #3190	PATTAYA
2 HILL INN #9458600	PATTAYA
2 PUNYAPHA PLACE HOTEL #9458601	PATTAYA
2 Savotel #212	PATTAYA
2 SAWASDEE PATTAYA #333	PATTAYA
2 SAWASDEE SABAI #9458602	PATTAYA
2 SAWASDEE SEAVIEW HOTEL #3816	PATTAYA
2 SAWASDEE SIAM #335	PATTAYA
2 SAWASDEE SUNSHINE #336	PATTAYA
4 THE IMPERIAL PATTAYA HOTEL #274	PATTAYA
5 RAYONG MARRIOTT RESORT & SPA #384	RAYONG
4 CENTARA Q RESORT RAYONG #9458605	RAYONG
4 KANTARY BAY #9458606	RAYONG
4 Kantary Bay Hotel Rayong #3227	RAYONG
4 NOVOTEL RAYONG RIM PAE RESORT #385	RAYONG
3S BANDARA ON SEA, RAYONG #1834	RAYONG
3S PHAVINA SERVICED RESIDENCE RAYONG #9458607	RAYONG
3S ROYAL PHALA CLIFF BEACH #1836	RAYONG
3S ROYAL TROPICAL BEACH AT VIP CHAIN RESORT (THE) #3229	RAYONG
3 EASTINY INN HOTEL #1658	RAYONG
3 GOLDEN CITY RAYONG HOTEL #9458608	RAYONG
3 Nice Beach Hotel #3228	RAYONG
3 PURIMAS BEACH HOTEL & SPA #9458609	RAYONG
3 RAYONG CHALET RESORT #9458610	RAYONG
3 RAYONG CITY HOTEL #9458611	RAYONG
3 Sea Sand Sun Resort #3807	RAYONG
5 AKA RESORT HUA HIN #3230	HUA HIN
5 ALEENTA HUA HIN – PRANBURI #445	HUA HIN
5 ANANTARA HUA HIN RESORT & SPA #447	HUA HIN
5 ASARA VILLA & SUITE, HUA HIN #448	HUA HIN
5 Banyan Resort Hua Hin #3235	HUA HIN
5 CAPE NIDHRA HOTEL #3237	HUA HIN
5 CENTARA GRAND BEACH RESORT & VILLAS, HUA HIN #1781	HUA HIN
5 CHIVA-SOM INTERNATIONAL HEALTH RESORT #454	HUA HIN
5 DUSIT THANI HUA HIN #459	HUA HIN
5 EVASON HUA HIN #460	HUA HIN
5 Grand Pacific Sovereign Resort & Spa #3240	HUA HIN
5 HILTON HUA HIN RESORT & SPA #461	HUA HIN
5 HYATT REGENCY HUA HIN #462	HUA HIN
5 INTERCONTINENTAL HUA HIN RESORT #465	HUA HIN
5 PUTAHRACSA RESORT #468	HUA HIN
5 Sheraton Hua Hin Pranburi Villas #3245	HUA HIN
5 SHERATON HUA HIN RESORT & SPA #474	HUA HIN
5 V VILLAS HUA HIN #477	HUA HIN
4S REST DETAIL HOTEL HUA HIN #470	HUA HIN
4S YAIYA HUA HIN #481	HUA HIN
4 AMARI HUA HIN #446	HUA HIN
4 Baan Bayan #3231	HUA HIN
4 Baan Laksasubha Resort #3233	HUA HIN
4 CERA RESORT CHAAM #3238	HUA HIN
4 D Varee Diva Kiang Haad Beach Resort #3239	HUA HIN
4 Furama Xclusive Sandara Hua Hin @ Cha Am #3247	HUA HIN
4 G HUA HIN RESORT & MALL #9458612	HUA HIN
4 IMPERIAL HUA HIN BEACH RESORT (THE) #464	HUA HIN
4 MARRAKESH HUA HIN RESORT & SPA #1512	HUA HIN
4 MIDA De Sea Hua Hin #3242	HUA HIN
4 NOVOTEL HUA HIN CHA AM BEACH RESORT & SPA #466	HUA HIN
4 Purimuntra Resort And Spa #3243	HUA HIN
4 REGENT CHA AM BEACH RESORT (THE) #469	HUA HIN
4 REGENT CHALET REGENT BEACH CHAAM #1514	HUA HIN
4 SEA-CRET HUA HIN (THE) #473	HUA HIN
4 VERANDA RESORT AND SPA HUA HIN #478	HUA HIN
4 Wannara Hotel Hua Hin #3248	HUA HIN
4 WORA BURA HUA HIN RESORT & SPA #480	HUA HIN
3S BEACH GARDEN HOTEL CHA-AM #3236	HUA HIN
3S Escape Hua Hin Sansiri Hotel Collection #3244	HUA HIN
3S Manathai Hua Hin Hotel #3241	HUA HIN
3S Tanawit Hotel & Spa #3246	HUA HIN
3 Baan Klang Hua Hin Condo & Resort #3232	HUA HIN
3 Baan Talay Dao Resort #3234	HUA HIN
3 CHOM VIEW HUA HIN #455	HUA HIN
3 CITIN LOFT HUA HIN #456	HUA HIN
3 CITY BEACH RESORT #457	HUA HIN
3 GLORY PLACE #1780	HUA HIN
3 IBIS HUA HIN HOTEL #463	HUA HIN
3 PATTAWIA RESORT & SPA #467	HUA HIN
3 RICH BOUTIQUE HOTEL #471	HUA HIN
5 AMARI VOGUE KRABI #784	KRABI
5 CENTARA GRAND BEACH RESORT & VILLAS KRABI #808	KRABI
5 Dusit Thani Krabi Beach Resort (ex. SHERATON KRABI BEACH RESORT ) #836	KRABI
5 PHULAY BAY, A RITZ-CARLTON RESERVEE #826	KRABI
5 RAYAVADEE #832	KRABI
5 SOFITEL KRABI PHOKEETHRA GOLF & SPA RESORT #838	KRABI
4 ANYAVEE TUBKAEK BEACH RESORT #789	KRABI
4 AO NANG ORCHID RESORT #791	KRABI
4 AO NANG PRINCEVILLE RESORT #793	KRABI
4 AONANG AYODHAYA SUITE RESORT #1790	KRABI
4 AONANG CLIFF BEACH RESORT AND SPA #797	KRABI
4 AONANG NAGAPURA RESORT & SPA #798	KRABI
4 BEYOND RESORT KRABI #804	KRABI
4 BHU NGA THANI RESORT & SPA #3252	KRABI
4 CENTARA ANDA DHEVI RESORT & SPA KRABI #807	KRABI
4 Deevana Plaza Krabi  Ao Nang (ex. MERCURE KRABI DEEVANA ) #820	KRABI
4 GOLDEN BEACH RESORT #3253	KRABI
4 HOLIDAY INN RESORT KRABI AO NANG BEACH #812	KRABI
4 IBIS STYLE KRABI AO NANG #1861	KRABI
4 ISLANDA ECO VILLAGE RESORT #3254	KRABI
4 KRABI CHA-DA #813	KRABI
4 KRABI LA PLAYA RESORT #815	KRABI
4 KRABI RESORT #816	KRABI
4 KRABI THAI VILLAGE #818	KRABI
4 KRABI TIPA RESORT #819	KRABI
4 MARITIME PARK & SPA RESORT #3255	KRABI
4 PAKASAI RESORT #822	KRABI
4 PAVILION QUEEN’S BAY #824	KRABI
4 PEACE LAGUNA RESORT & SPA #825	KRABI
4 RAILAY BAY RESORT & SPA #827	KRABI
4 RED GINGER CHIC RESORT #833	KRABI
4 SRISUKSANT RESORT #1803	KRABI
4 SUNRISE TROPICAL RESORT #3258	KRABI
4 TUBKAAK KRABI BOUTIQUE RESORT (THE) #845	KRABI
4 VOGUE RESORT & SPA AO NANG #848	KRABI
4 Wareerak Hot Spring Retreat #9458529	KRABI
3S ANDAMANEE BOUTIQUE RESORT KRABI #787	KRABI
3S AONANG BURI RESORT #796	KRABI
3S AONANG PARADISE RESORT #799	KRABI
3S APASARI KRABI HOTEL #3251	KRABI
3S EMERALD GARDEN RESORT #810	KRABI
3S PHRA NANG INN #9458531	KRABI
3S SMALL HOTEL, KRABI (THE) #837	KRABI
3 ANYAVEE AO NANG BAY RESORT #803	KRABI
3 ANYAVEE BAN AO NANG RESORT #1795	KRABI
3 ANYAVEE RAILAY RESORT #788	KRABI
3 Ao Nang Mountain View #3802	KRABI
3 AO NANG SUNSET HOTEL #795	KRABI
3 AONANG ALL SEASONS BEACH RESORT #9458674	KRABI
3 AONANG PRESIDENT HOTEL #9458675	KRABI
3 AONANG SILVER ORCHID RESORT #9458676	KRABI
3 AONANG SUCCESS BEACH RESORT #1792	KRABI
3 AONANG VILLA RESORT #800	KRABI
3 Aonang Viva Resort #3810	KRABI
3 BEACH TERRACE #802	KRABI
3 BENS HOUSE AONANG #9458677	KRABI
3 BOONSIAM HOTEL #9458678	KRABI
3 COCO NORI HOTEL #9458679	KRABI
3 DIAMOND CAVE RESORT & SPA #9458680	KRABI
3 DIAMOND PLACE KRABI #9458681	KRABI
3 ICHECK INN AO NANG KRABI #1866	KRABI
3 KRABI CITY SEAVIEW HOTEL #9458682	KRABI
3 KRABI HERITAGE HOTEL #814	KRABI
3 PALACE AO NANG RESORT (THE) #9458683	KRABI
3 PALM PARADISE RESORT AONANG #823	KRABI
3 PHU PHA AO  NANG RESORT & SPA #9458684	KRABI
3 Railay Great View Resort #3256	KRABI
3 RAILAY PHUTAWAN RESORT #829	KRABI
3 RAILAY PRINCESS RESORT & SPA #830	KRABI
3 RAILAY VILLAGE RESORT & SPA KRABI #831	KRABI
3 SAND SEA RESORT #400	KRABI
3 SOMKIET BURI RESORT & SPA #3257	KRABI
3 THEPPARAT LODGE KRABI #9458685	KRABI
3 TIMBER HOUSE AO NANG RESORT #841	KRABI
3 VERANDAH (THE) #847	KRABI
3 WHITE SAND KRABI RESORT #849	KRABI
2 AONANG SMILE HOTEL #1791	KRABI
2 BAANTHARA GUESTHOUSE #9458686	KRABI
2 KRABI SAMRAN RESIDENCE #9458687	KRABI
5 137 PILLARS HOUSE #9458613	CHIANGMAI
5 ANANTARA CHIANG MAI RESORT & SPA #1071	CHIANGMAI
5 DHARA DHEVI, CHIANG MAI #1082	CHIANGMAI
5 DUSITD2 CHIANG MAI HOTEL #1074	CHIANGMAI
5 FOUR SEASONS RESORT CHIANG MAI #1075	CHIANGMAI
5 LE MERIDIEN CHIANG MAI #1081	CHIANGMAI
5 Puripunn Baby Grand Boutique Hotel #3266	CHIANGMAI
5 RATILANNA RIVERSIDE SPA RESORT, CHIANG MAI #1772	CHIANGMAI
5 SHANGRI-LA HOTEL, CHIANG MAI #1085	CHIANGMAI
5 SIRIPANNA VILLA RESORT & SPA CHIANG MAI #1859	CHIANGMAI
4S VERANDA CHIANG MAI: THE HIGH RESORT #5001	CHIANGMAI
4 Away Suansawan Chiang Mai #3261	CHIANGMAI
4 DE NAGA CHIANG MAI #3262	CHIANGMAI
4 DUANGTAWAN HOTEL CHIANG MAI #1069	CHIANGMAI
4 DUSIT PRINCESS CHIANG MAI #3268	CHIANGMAI
4 EMPRESS CHIANG MAI #9458614	CHIANGMAI
4 FURAMA CHIANG MAI #1768	CHIANGMAI
4 HOLIDAY INN CHIANG MAI #1076	CHIANGMAI
4 IMPERIAL MAE PING HOTEL, CHIANG MAI (THE) #1079	CHIANGMAI
4 KANTARY HILLS #9458615	CHIANGMAI
4 KHUM PHAYA RESORT & SPA, Centara Boutique Collection #3265	CHIANGMAI
4 MERCURE CHIANGMAI #9458616	CHIANGMAI
4 PANVIMAN CHIANGMAI SPA RESORT #1084	CHIANGMAI
4 RARINJINDA WELLNESS SPA RESORT #3267	CHIANGMAI
4 TAO GARDEN HEALTH SPA & RESORT #9458617	CHIANGMAI
3 ANGKHANG NATURE  RESORT #3260	CHIANGMAI
3 Eurasia Chiang Mai Hotel #3263	CHIANGMAI
3 hotel M chiangmai #9458618	CHIANGMAI
3 IBIS CHIANG MAI #9458619	CHIANGMAI
3 IBIS styles chiang mai #9458620	CHIANGMAI
3 Imperial Chiang Mai Resort & Sports Club #3264	CHIANGMAI
3 LANNA HOUSE #9458621	CHIANGMAI
3 SMALL HOTEL, CHIANG MAI (THE) #1774	CHIANGMAI
5 ANANTARA GOLDEN TRIANGLE ELEPHANT CAMP & RESORT #1087	CHIANGRAI
5 Four Seasons Tented Camp Golden Triangle #1089	CHIANGRAI
5 LE MERIDIEN CHIANG RAI RESORT #1863	CHIANGRAI
4S DUSIT ISLAND RESORT CHIANG RAI #1088	CHIANGRAI
4 LEGEND CHIANG RAI BOUTIQUE RIVER RESORT & SPA (THE) #1092	CHIANGRAI
4 WIANG INN HOTEL #4010	CHIANGRAI
3S IMPERIAL GOLDEN TRIANGLE RESORT (THE) #1090	CHIANGRAI
3 RIMKOK RESORT HOTEL #1094	CHIANGRAI
5 PARADEE RESORT #396	SAMED
4S LE VIMARN COTTAGES & SPA #391	SAMED
4 AO PRAO RESORT #388	SAMED
4 SAMED VILLA RESORT #9458700	SAMED
3S LIMA BELLA RESORT #3410	SAMED
3S SAI KAEW BEACH RESORT #397	SAMED
3S SAMED PAVILION RESORT & RESTAURANT #401	SAMED
3S Samet Ville Resort #3414	SAMED
3 Ao Cho Grandview Hideaway Resort (old GRAND VIEW AO CHO HIDEAWAY RESORT) #389	SAMED
3 BAAN PLOY SEA #3408	SAMED
3 BAAN SUPPAROD #3409	SAMED
3 GRAND VIEW KOH SAMED #9458701	SAMED
3 La Lune Beach Resort #4012	SAMED
3 LE BLANC SAMED RESORT #390	SAMED
3 LIMA COCO RESORT #393	SAMED
3 SAMED CABANA RESORT #3412	SAMED
3 SAMED CLUB #398	SAMED
3 SAMED GRAND VIEW RESORT #399	SAMED
2 LE BLANC VINTAGE HILL RESORT #1837	SAMED
5 EMERALD COVE KOH CHANG (THE) #404	CHANG
5 PARAMA KOH CHANG #1855	CHANG
4S CENTARA KOH CHANG TROPICANA RESORT #409	CHANG
4S PANVIMAN KOH CHANG RESORT #433	CHANG
4 AANA RESORT & SPA #402	CHANG
4 AIYAPURA RESORT & SPA, KOH CHANG #1776	CHANG
4 AWA RESORT KOH CHANG #1864	CHANG
4 BARALI BEACH RESORT AND SPA #407	CHANG
4 BHU TARN KOH CHANG RESORT & SPA #9458669	CHANG
4 BHUMIYAMA BEACH RESORT #408	CHANG
4 CHILL KOH CHANG (THE) #414	CHANG
4 CHIVAPURI BEACH RESORT #415	CHANG
4 DEWA KOH CHANG (THE) #418	CHANG
4 GAJAPURI RESORT & SPA #420	CHANG
4 KC GRANDE RESORT & SPA #423	CHANG
4 KOH CHANG PARADISE RESORT & SPA #429	CHANG
4 MERCURE KOH CHANG HIDEAWAY HOTEL #432	CHANG
4 RAMAYANA KOH CHANG RESORT & SPA #434	CHANG
4 SEA VIEW RESORT & SPA #435	CHANG
3S KOH CHANG CLIFF BEACH RESORT #425	CHANG
3 BANPU KOH CHANG HOTEL #406	CHANG
3 CHAI CHET RESORT #410	CHANG
3 CHANG BURI RESORT & SPA #411	CHANG
3 CHANG CLIFF RESORT #412	CHANG
3 CHANG PARK RESORT & SPA #413	CHANG
3 COCONUT BEACH RESORT #416	CHANG
3 COOKIES HOTEL KOH CHANG #417	CHANG
3 GARDEN RESORT KOH CHANG #421	CHANG
3 GRAND CABANA HOTEL & RESORT #9458670	CHANG
3 KACHA RESORT & SPA, KOH CHANG #422	CHANG
3 KAI BAE BEACH RESORT #9458671	CHANG
3 KLONG PRAO RESORT #424	CHANG
3 Koh Chang Boat Chalet Hotel (ex. Aunchaleena Beach Front Koh Chang) #3403	CHANG
3 KOH CHANG CORAL RESORT #9458672	CHANG
3 KOH CHANG GRAND ORCHID RESORT & SPA #427	CHANG
3 KOH CHANG GRAND VIEW RESORT #3405	CHANG
3 KOH CHANG RESORT & SPA #430	CHANG
3 MAC RESORT HOTEL #431	CHANG
3 NIRVANA RESORT KOH CHANG #9458673	CHANG
3 V.J SEARENITY KOH CHANG #3406	CHANG
3 V.J. Bed & Breakfast #3407	CHANG
2 ALINA GRANDE RESORT #403	CHANG
2 KOH CHANG LAGOON RESORT #428	CHANG
5 AMANPURI #492	PHUKET
5 AMATARA RESORT & WELLNESS #9458622	PHUKET
5 ANANTARA PHUKET LAYAN RESORT & SPA #495	PHUKET
5 ANANTARA PHUKET VILLAS #496	PHUKET
5 ANANTARA VACATION CLUB PHUKET MAI KHAO #4001	PHUKET
5 ANDARA RESORT & VILLAS #506	PHUKET
5 ANGSANA LAGUNA PHUKET #508	PHUKET
5 AVISTA HIDEAWAY RESORT & SPA PHUKET #520	PHUKET
5 AVISTA PHUKET RESORT & SPA AT KATA BEACH #521	PHUKET
5 AYARA HILLTOPS BOUTIQUE RESORT & SPA #522	PHUKET
5 AYARA KAMALA RESORT & SPA #523	PHUKET
5 BANDARA VILLAS PHUKET #9458623	PHUKET
5 BANYAN TREE PHUKET #537	PHUKET
5 BANYAN TREE SPA SANCTUARY #538	PHUKET
5 Bell Pool Villa Resort Phuket #3287	PHUKET
5 B-LAY TONG PHUKET, MGALLERY COLLECTION #551	PHUKET
5 CAPE PANWA HOTEL PHUKET #561	PHUKET
5 CAPE SIENNA PHUKET HOTEL & VILLAS #562	PHUKET
5 CENTARA GRAND BEACH RESORT PHUKET #563	PHUKET
5 CENTARA GRAND WEST SANDS RESORT & VILLAS, PHUKET #564	PHUKET
5 DOUBLEPOOL VILLA BY BANYAN TREE #586	PHUKET
5 DUSIT THANI LAGUNA PHUKET #588	PHUKET
5 FISHERMEN’S HARBOUR URBAN RESORT , PHUKET  #4531	PHUKET
5 GRAND MERCURE PHUKET PATONG #3307	PHUKET
5 HILTON PHUKET ARCADIA RESORT & SPA #593	PHUKET
5 HYATT REGENCY PHUKET RESORT #1577	PHUKET
5 IMPIANA PRIVATE VILLAS KATA NOI, PHUKET #604	PHUKET
5 INDIGO PEARL PHUKET #607	PHUKET
5 JW MARRIOTT PHUKET RESORT & SPA #612	PHUKET
5 KALIMA RESORT & SPA #614	PHUKET
5 KATATHANI PHUKET BEACH RESORT #634	PHUKET
5 KEEMALA #3801	PHUKET
5 LA FLORA RESORT PATONG #639	PHUKET
5 LE MERIDIEN PHUKET BEACH RESORT #642	PHUKET
5 MAIKHAO DREAM VILLA RESORT & SPA, PHUKET #646	PHUKET
5 MALISA VILLA SUITES #648	PHUKET
5 MANDARAVA RESORT & SPA #3323	PHUKET
5 Marriott's Mai Khao Beach – Phuket #3325	PHUKET
5 Marriott's Phuket Beach Club #9458526	PHUKET
5 MILLENNIUM RESORT PATONG, PHUKET #656	PHUKET
5 MOVENPICK RESORT & SPA KARON BEACH PHUKET #3415	PHUKET
5 MOVENPICK RESORT BANGTAO BEACH PHUKET #659	PHUKET
5 NAKA PHUKET  (THE) #3360	PHUKET
5 OUTRIGGER LAGUNA PHUKET BEACH RESORT #3331	PHUKET
5 OUTRIGGER LAGUNA PHUKET RESORT & VILLAS #676	PHUKET
5 PARESA RESORT PHUKET #681	PHUKET
5 PAVILION, PHUKET  (THE) #697	PHUKET
5 Pavilions Suite Collections (THE) #4002	PHUKET
5 PHUKET PANWA BEACHFRONT RESORT #578	PHUKET
5 POINT YAMU PHUKET BY COMO #1612	PHUKET
5 PULLMAN PHUKET ARCADIA #714	PHUKET
5 RADISSON BLU PLAZA RESORT PHUKET PANWA BECH #716	PHUKET
5 Amatara Resort & Wellness Phuket (ex. REGENT PHUKET CAPE PANWA) #722	PHUKET
5 RENAISSANCE PHUKET RESORT & SPA #723	PHUKET
5 Naiharn (THE) (ROYAL PHUKET YACHT CLUB) #729	PHUKET
5 SALA PHUKET RESORT & SPA #730	PHUKET
5 SERENITY RESORT & RESIDENCES #742	PHUKET
5 SHORE AT KATATHANI (THE) #743	PHUKET
5 SRI PANWA, PHUKET #749	PHUKET
5 SUNSURI PHUKET #9458624	PHUKET
5 SURIN PHUKET (THE) #760	PHUKET
5 TRISARA #768	PHUKET
5 TWINPALMS PHUKET #773	PHUKET
5 U ZENMAYA PHUKET #3367	PHUKET
5 VIJITT RESORT PHUKET (THE) #774	PHUKET
5 WESTIN SIRAY BAY RESORT & SPA, PHUKET (THE) #780	PHUKET
4S AMARI PHUKET #493	PHUKET
4S AVANTIKA BOUTIQUE HOTEL #519	PHUKET
4S Baan Yamu Residences #9458625	PHUKET
4S BOATHOUSE BY MONTARA #556	PHUKET
4S CHANDARA RESORT & SPA #569	PHUKET
4S HOLIDAY INN RESORT PHUKET MAI KHAO BEACH #596	PHUKET
4S KATA BEACH RESORT & SPA #625	PHUKET
4S LAGUNA HOLIDAY CLUB PHUKET RESORT #640	PHUKET
4S MOM TRI’S VILLA ROYALE, PHUKET #657	PHUKET
4S RESIDENCE RESORT & SPA RETREAT (THE) #724	PHUKET
4S THAVORN BEACH VILLAGE & SPA #764	PHUKET
4S THAVORN PALM BEACH RESORT #765	PHUKET
4 ABSOLUTE BANGLA SUITES #3270	PHUKET
4 ABSOLUTE NAKALAY BOUTIQUE RESORT #3271	PHUKET
4 Absolute Twin Sands Resort & Spa #3272	PHUKET
4 ACCESS RESORT & VILLAS #486	PHUKET
4 ALLAMANDA LAGUNA PHUKET #3862	PHUKET
4 ALPINA PHUKET NALINA RESORT & SPA #491	PHUKET
4 AMORA BEACH RESORT PHUKET #494	PHUKET
4 ANADAMAN SEAVIEW KARON BEACH #9458626	PHUKET
4 ANDAKIRA HOTEL #497	PHUKET
4 ANDAMAN BEACH SUITES HOTEL #498	PHUKET
4 ANDAMAN CANNACIA RESORT & SPA #499	PHUKET
4 ANDAMAN EMBRACE RESORT & SPA #500	PHUKET
4 AQUAMARINE RESORT & VILLA (THE) #513	PHUKET
4 ASHLEE Heights Patong Hotel & Suites (THE) (ex. CITRUS HEIGHTS PATONG) #572	PHUKET
4 ASPASIA PHUKET (THE) #3278	PHUKET
4 AT PANTA PHUKET #518	PHUKET
4 BAAN YUREE RESORT & SPA #530	PHUKET
4 BANGTAO TROPICAL RESIDENCE #533	PHUKET
4 BANTHAI BEACH RESORT & SPA #535	PHUKET
4 BEL AIRE RESORT & SPA #9458627	PHUKET
4 BEST WESTERN PREMIER BANGTAO BEACH RESORT & SPA #550	PHUKET
4 BEYOND RESORT KARON #1556	PHUKET
4 Bliss South Beach Patong (The) #552	PHUKET
4 BLUE OCEAN BEACH RESORT TRI TRANG #3290	PHUKET
4 Blue Ocean Resort & Spa Phuket #3291	PHUKET
4 BURASARI #558	PHUKET
4 Casa Del M RESORT #1560	PHUKET
4 CASSIA PHUKET #9458628	PHUKET
4 CCS HIDEAWAY KARON #9458629	PHUKET
4 CENTARA BLUE MARINE RESORT & SPA PHUKET (THE) #553	PHUKET
4 CENTARA KARON RESORT PHUKET #565	PHUKET
4 CENTARA KATA RESORT PHUKET #566	PHUKET
4 CENTARA VILLAS PHUKET #4006	PHUKET
4 CHANALAI FLORA RESORT #1563	PHUKET
4 CHANALAI GARDEN RESORT #1851	PHUKET
4 CHANALAI HILLSIDE RESORT #3295	PHUKET
4 CHANALAI ROMANTICA RESORT #3296	PHUKET
4 CHARM RESORT PHUKET (THE) #1853	PHUKET
4 CLOUD 19 BEACH RETREAT #573	PHUKET
4 COURTYARD BY MARRIOTT KAMALA #9458630	PHUKET
4 Crystal Wild Resort Panwa Phuket #3302	PHUKET
4 D Varee Mai Khao Beach, Phuket   #1567	PHUKET
4 D Varee Residence Patong, Phuket #3806	PHUKET
4 Deevana Plaza Phuket Patong (EX MERCURE PHUKET DEEVANA) #652	PHUKET
4 DEWA NAI YANG BEACH PHUKET #582	PHUKET
4 DIAMOND COTTAGE RESORT & SPA #584	PHUKET
4 DOUBLETREE RESORT BY HILTON, PHUKET — SURIN BEACH #585	PHUKET
4 DUANGJITT RESORT & SPA #587	PHUKET
4 DUSIT D2 PHUKET RESORT #1850	PHUKET
4 Eastin Yama Hotel Phuket #3303	PHUKET
4 FOTO HOTEL #3304	PHUKET
4 FRIENDSHIPBEACH RESORT & SPA #9458631	PHUKET
4 Grand Bleu Ocean View Pool Suite #3306	PHUKET
4 HOLIDAY INN RESORT PHUKET PATONG BEACH #595	PHUKET
4 IMPIANA RESORT PATONG, PHUKET #605	PHUKET
4 KAMALA BEACH RESORT (A SUNPRIME RESORT) #617	PHUKET
4 KANTARY BAY HOTEL PHUKET #618	PHUKET
4 KARON PHUNAKA RESORT & SPA #620	PHUKET
4 KARON SEA SANDS RESORT & SPA #622	PHUKET
4 Kata Lucky Villa & Pool Access #3318	PHUKET
4 KATA PALM RESORT & SPA #630	PHUKET
4 KEE RESORT & SPA (THE) #635	PHUKET
4 L’ESPRIT DE NAIYANG #644	PHUKET
4 LANTERN RESORT PATONG (THE) #641	PHUKET
4 MANATHAI SURIN PHUKET #649	PHUKET
4 MANGROVE PANWA PHUKET RESORT (THE) #651	PHUKET
4 MERLIN BEACH RESORT #654	PHUKET
4 NAI YANG BEACH RESORT #664	PHUKET
4 NAITHONBURI BEACH RESORT PHUKET #665	PHUKET
4 NAP PATONG (THE) #3327	PHUKET
4 NOVOTEL PHUKET KAMALA BEACH #670	PHUKET
4 NOVOTEL PHUKET KARON BEACH RESORT & SPA #3328	PHUKET
4 NOVOTEL PHUKET RESORT #671	PHUKET
4 NOVOTEL PHUKET VINTAGE PARK RESORT #3329	PHUKET
4 PALM OASIS BOUTIQUE #9458632	PHUKET
4 PALMERY RESORT & SPA (THE) #1601	PHUKET
4 PALMS KAMALA BEACH (THE) #9458633	PHUKET
4 PANWA BEACH RESORT PHUKET #4005	PHUKET
4 PATONG BEACH HOTEL #687	PHUKET
4 PATONG HERITAGE HOTEL #9458634	PHUKET
4 Patong Merlin Hotel #3339	PHUKET
4 PATONG PARAGON RESORT & SPA #693	PHUKET
4 Patong Pearl Resortel #3341	PHUKET
4 Patong Premier Resort #3342	PHUKET
4 PEACH BLOSSOM RESORT #698	PHUKET
4 PEACH HILL RESORT #699	PHUKET
4 PHUKET GRACELAND RESORT & SPA #702	PHUKET
4 Phuket Merlin Hotel #3343	PHUKET
4 PHUNAWA RESORT #3346	PHUKET
4 PRINCESS SEAVIEW RESORT & SPA #712	PHUKET
4 Ramada Phuket Deevana   #3808	PHUKET
4 RAMADA PHUKET SOUTHSEA #717	PHUKET
4 RAWAI PALM BEACH RESORT #718	PHUKET
4 ROYAL PARADISE HOTEL & SPA (THE) #727	PHUKET
4 Royal Phuket City Hotel #3350	PHUKET
4 SAWASDEE VILLAGE #3352	PHUKET
4 SEA SUN SAND RESORT & SPA #735	PHUKET
4 Seastone Private Pool Villas #3354	PHUKET
4 SEAVIEW PATONG HOTEL #1619	PHUKET
4 SECRET CLIFF RESORT & RESTAURANT #738	PHUKET
4 SENSES RESORT, PATONG BEACH (THE ) #3355	PHUKET
4 SLEEP WITH ME HOTEL DESIGN HOTEL @ PATONG #3357	PHUKET
4 SUGAR PALM GRAND HILLSIDE #751	PHUKET
4 SUNWING RESORT & SPA BANGTAO BEACH #757	PHUKET
4 SUNWING RESORT KAMALA BEACH #758	PHUKET
4 SUPALAI RESORT & SPA PHUKET #759	PHUKET
4 SWISSOTEL RESORT PHUKET – ALL SUITES & FAMILY HOTEL #761	PHUKET
4 THAI BOUTIUQE RESORT #9458635	PHUKET
4 THARA PATONG BEACH RESORT & SPA #763	PHUKET
4 T-Villa Resort #3366	PHUKET
4 VILLAGE RESORT & SPA (THE) #776	PHUKET
4 WATERFRONT SUITES BY CENTARA #779	PHUKET
3S ALL SEASONS NAI HARN PHUKET #489	PHUKET
3S BY THE SEA RESIDENCE #560	PHUKET
3S CENTRA ASHLEE HOTEL PATONG #568	PHUKET
3S FRONT VILLAGE (THE) #590	PHUKET
3S KATA SEA BREEZE RESORT #626	PHUKET
3S PATONG HEMINGWAY'S HOTEL #3337	PHUKET
3S SAWADDI PATONG RESORT #732	PHUKET
3S SUGAR MARINA RESORT — ART — KARON BEACH #4007	PHUKET
3S WORABURI PHUKET RESORT & SPA #782	PHUKET
3 7Q SARIYA RESIDENT #482	PHUKET
3 88 HOTEL #9458636	PHUKET
3 ADDPLUS HOTELS & SPA #3273	PHUKET
3 AIM PATONG HOTEL (THE) #1857	PHUKET
3 ALOHA RESIDENCE #490	PHUKET
3 AMATA RESORT #3275	PHUKET
3 ANDA BEACHSIDE HOTEL #9458637	PHUKET
3 ANDAMAN PHUKET HOTEL #501	PHUKET
3 ANDAMAN SEASIDE RESORT, BANGTAO BEACH #503	PHUKET
3 Aochalong Villa & Spa #3277	PHUKET
3 APK RESORT #512	PHUKET
3 APK RESORT & SPA #511	PHUKET
3 ARITA HOTEL #9458638	PHUKET
3 ASHLEE Plaza Patong Hotel & Spa (THE) (ex. CITIN PLAZA PATONG) #571	PHUKET
3 ASPERY HOTEL #3279	PHUKET
3 AT HOME BOUTIQUE HOTEL #517	PHUKET
3 BAAN BOA RESORT #524	PHUKET
3 BAAN KARON RESORT #1811	PHUKET
3 BAAN KARON VIEW PHUKET #9458639	PHUKET
3 BAAN KARONBURI RESORT #527	PHUKET
3 BAAN KRATING RESORT #528	PHUKET
3 BAMBOO HOUSE PHUKET #532	PHUKET
3 BANGKOK RESIDENCE HOTEL #3804	PHUKET
3 BANGTAO VILLAGE RESORT #3283	PHUKET
3 BARAMEE HIP HOTEL #539	PHUKET
3 BARAMEE RESORTEL #540	PHUKET
3 BAUMANBURI #3284	PHUKET
3 BEACH BOUTIQUE HOUSE (THE) #544	PHUKET
3 BEACH HEIGHTS RESORT (THE) #3285	PHUKET
3 BEL AIRE RESORT PATONG #3286	PHUKET
3 BEST WESTERN PATONG BEACH #3288	PHUKET
3 BEST WESTERN PHUKET OCEAN RESORT #549	PHUKET
3 Blue Ocean Studio #3292	PHUKET
3 CHANG CLUB #3805	PHUKET
3 CHANG RESIDENCE HOTEL #3811	PHUKET
3 Club Bamboo Boutique Resort & Spa #3298	PHUKET
3 COCONUT VILLAGE RESORT PATONG #575	PHUKET
3 CRIB PATONG #3301	PHUKET
3 DEEVANA PATONG RESORT & SPA #579	PHUKET
3 EAZY RESORT KATA BEACH #589	PHUKET
3 GRAND SUNSET HOTEL KARON #592	PHUKET
3 Hemingway's Hotel #3308	PHUKET
3 Hemingways Silk Hotel #3309	PHUKET
3 HOLIDAY INN EXPRESS PHUKET PATONG BEACH CENTRAL #594	PHUKET
3 HYTON LEELAVADEE HOTEL #600	PHUKET
3 Icon Siray Resort  (The) (ex. Phuket Siray Hut Resort ) #3345	PHUKET
3 I DEE HOTEL #601	PHUKET
3 IBIS PHUKET KATA #602	PHUKET
3 IBIS PHUKET PATONG #603	PHUKET
3 iCheck inn Patong (old NARRY PATONG BY ICHECK INN ) #667	PHUKET
3 IN ON THE BEACH #606	PHUKET
3 INN PATONG #688	PHUKET
3 JIRAPORN HILL RESORT PATONG #3312	PHUKET
3 KAMALA RESORT & SPA #3316	PHUKET
3 KARON CLIFF CONTEMPORARY BOUTIQUE BUNGALOW #9458640	PHUKET
3 KARON LIVING ROOM #9458641	PHUKET
3 KARON PRINCESS HOTEL #621	PHUKET
3 KARON RESORT & SPA #9458642	PHUKET
3 KARON WHALE RESORT PHUKET #623	PHUKET
3 KATA BLUE SEA RESORT #3317	PHUKET
3 KATA COUNTRY HOUSE PHUKET #627	PHUKET
3 KATA NOI RESORT #629	PHUKET
3 KATA POOLSIDE RESORT #3320	PHUKET
3 KATA SILVER SAND #633	PHUKET
3 LAE LAY SUITES #9458643	PHUKET
3 Larn Park Resortel #3321	PHUKET
3 MALIN PATONG HOTEL #3322	PHUKET
3 Marina Phuket Resort #3324	PHUKET
3 MEIR JARR HOTEL #1589	PHUKET
3 MUSSEE KATA BOUTIQUE #661	PHUKET
3 MY FRIENDS HOUSE #9458644	PHUKET
3 NARA GRANDEUR HOTEL PATONG #9458645	PHUKET
3 NATURAL RESORT (THE) #668	PHUKET
3 NIPA RESORT #669	PHUKET
3 OLD PHUKET – KARON BEACH RESORT (THE) #673	PHUKET
3 ORCHIDACEA RESORT #675	PHUKET
3 OUTDOOR INN AND RESTAURANT #1598	PHUKET
3 PALMYRA PATONG RESORT #677	PHUKET
3 PATONG BAY GARDEN RESORT #682	PHUKET
3 PATONG BAY RESIDENCE (ex. PATONG BAY RESOTEL ) #3335	PHUKET
3 PATONG COTTAGE RESORT #689	PHUKET
3 Patong Grand Ville Hotel #3336	PHUKET
3 PATONG HOLIDAY #3338	PHUKET
3 PATONG LODGE HOTEL #105316	PHUKET
3 PATONG PRINCESS HOTEL #695	PHUKET
3 PATONG RESORT HOTEL #696	PHUKET
3 PATONG SWISS HOTEL #9458646	PHUKET
3 PHUKET ISLAND VIEW HOTEL #703	PHUKET
3 PHUKET ORCHID RESORT & SPA #705	PHUKET
3 PHULIN RESORT, KARON (THE) #706	PHUKET
3 PHUVAREE RESORT #707	PHUKET
3 PLATINUM HOTEL PATONG #709	PHUKET
3 POPPA PALACE #710	PHUKET
3 PRINT KAMALA RESORT #713	PHUKET
3 R Mar Resort and Spa #3347	PHUKET
3 RAYABURI HOTEL PATONG #719	PHUKET
3 RCB PATONG HOTEL #721	PHUKET
3 RED Planet Patong, Phuket (ex. TUNE HOTEL PATONG) #772	PHUKET
3 ROYAL PALM BEACH FRONT (THE) #3349	PHUKET
3 RUXXA DESIGN HOTEL #3351	PHUKET
3 SECRET CLIFF VILLA #3353	PHUKET
3 SEEKA BOUTIQUE RESORT #1620	PHUKET
3 Silk Hill Hotel (THE) #3361	PHUKET
3 SIMPLITEL #746	PHUKET
3 SIRA GRANDE HOTEL & SPA #3356	PHUKET
3 SM RESORT #748	PHUKET
3 SUGAR MARINA – FASHION – KATA BEACH #753	PHUKET
3 SUGAR MARINA RESORT – NAUTICAL – KATA BEACH #750	PHUKET
3 Sugar Marina Resort-Surf-Kata Beach #3358	PHUKET
3 SUNNY RESORT BY SUNNY GROUP #9458647	PHUKET
3 SUNSET BEACH RESORT #755	PHUKET
3 SUNSHINE PATONG #754	PHUKET
3 SURINTRA BOUTIQUE RESORT #9458648	PHUKET
3 THANTHIP BEACH RESORT #762	PHUKET
3 THREE BY APK (THE) #3809	PHUKET
3 TIGER HOTEL (COMPLEX ) #3364	PHUKET
3 TIGER INN HOTEL #3803	PHUKET
3 Tony Resort #3365	PHUKET
3 TRI TRANG BEACH RESORT #767	PHUKET
3 TROPICAL BUNGALOW HOTEL #9458649	PHUKET
3 VIRIDIAN RESORT PATONG BEACH (THE) #777	PHUKET
3 WE HOTEL #1632	PHUKET
3 WE HOTEL@SAN SABAI #3368	PHUKET
3 Wynn Chilli Salza Patong  (ex. Chilli Salza Patong) #3319	PHUKET
2 BE MY GUEST PHUKET #9458650	PHUKET
2 DOME RESORT #9458651	PHUKET
2 ORCHID HOUSE(THE) #9458652	PHUKET
2 PHUKET GOLDEN SAND INN #701	PHUKET
5 AMMATARA PURA POOL VILLA #3370	SAMUI
5 ANANTARA BOPHUT RESORT & SPA #924	SAMUI
5 ANANTARA LAWANA RESORT & SPA SAMUI #925	SAMUI
5 BANYAN TREE SAMUI #938	SAMUI
5 BELMOND NAPASAI KOH SAMUI #105317	SAMUI
5 BO PHUT RESORT & SPA #944	SAMUI
5 BRIZA BEACH RESORT SAMUI (THE) #945	SAMUI
5 CENTARA GRAND BEACH RESORT SAMUI #952	SAMUI
5 CONRAD KOH SAMUI #964	SAMUI
5 Elements Boutique Resort & Spa Hideaway #3378	SAMUI
5 FOUR SEASONS RESORT KOH SAMUI #974	SAMUI
5 INFINITY RESIDENCE & RESORT KOH SAMUI #1841	SAMUI
5 INTERCONTINENTAL SAMUI BAAN TALING NGAM RESORT #985	SAMUI
5 KAMALAYA KOH SAMUI, WELLNESS SANCTUARY & HOLISTIC SPA #988	SAMUI
5 KANDA RESIDENCES #991	SAMUI
5 KC BEACH CLUB & POOL VILLAS #1730	SAMUI
5 KC RESORT & OVER WATER VILLAS #992	SAMUI
5 KIRIKAYAN LUXURY POOL VILLAS & SPA #994	SAMUI
5 LE MERIDIEN KOH SAMUI RESORT & SPA #1000	SAMUI
5 LIBRARY (THE) #1001	SAMUI
5 MELATI BEACH RESORT & SPA #1004	SAMUI
5 MUANG SAMUI SPA RESORT #1007	SAMUI
5 NORA BURI RESORT & SPA #4017	SAMUI
5 Outrigger Koh Samui Beach Resort #915	SAMUI
5 RENAISSANCE KOH SAMUI RESORT & SPA #1026	SAMUI
5 ROYAL MUANG SAMUI VILLAS #105318	SAMUI
5 SALA SAMUI RESORT & SPA #1030	SAMUI
5 SANTIBURI BEACH RESORT, GOLF & SPA #1047	SAMUI
5 SAREERAYA VILLAS & SUITES #1050	SAMUI
5 SHASA RESORT & RESIDENCES, KOH SAMUI #1054	SAMUI
5 Sheraton Samui Resort ( old IMPERIAL SAMUI BEACH RESORT) (открытие в 2015) #983	SAMUI
5 SILAVADEE POOL SPA RESORT #1055	SAMUI
5 SIX SENSES SAMUI #1056	SAMUI
5 TONGSAI BAY (THE) #1060	SAMUI
5 U KOH MADSUM(THE) #9458653	SAMUI
5 VANA BELLE, A LUXURY COLLECTION RESORT #1061	SAMUI
5 W RETREAT KOH SAMUI #1063	SAMUI
5 X2 SAMUI #1066	SAMUI
4S AMARI KOH SAMUI #9458654	SAMUI
4S BANDARA RESORT & SPA #937	SAMUI
4S BEACH REPUBLIC #939	SAMUI
4S DARA SAMUI BEACH RESORT & SPA VILLA #966	SAMUI
4S KALA SAMUI (THE) #987	SAMUI
4S NEW STAR BEACH RESORT #1010	SAMUI
4S NIKKI BEACH RESORT #3384	SAMUI
4S Prana Resort Nandana, Koh SaMUI #3417	SAMUI
4 AKYRA CHURA SAMUI #916	SAMUI
4 BAAN HAAD NGAM BOUTIQUE RESORT & SPA #930	SAMUI
4 BAAN SAMUI RESORT #3371	SAMUI
4 Baiyoke Seacoast Resort (ex. Q SIGNATURE SAMUI BEACH RESORT) #1024	SAMUI
4 BANANA FAN SEA RESORT #936	SAMUI
4 BANBUREE WELLNESS RESORT & SPA #3373	SAMUI
4 BHUNDHARI CHAWENG BEACH RESORT #941	SAMUI
4 BHUNDHARI SPA RESORT & VILLAS SAMUI #942	SAMUI
4 BURI RASA VILLAGE KOH SAMUI #949	SAMUI
4 CENTARA VILLAS SAMUI #954	SAMUI
4 CENTRA DE MAR #9458655	SAMUI
4 CHABA CABANA BEACH RESORT & SPA #956	SAMUI
4 CHAWENG BLUE LAGOON HOTEL #959	SAMUI
4 CHAWENG BURI RESORT & SPA #960	SAMUI
4 CHAWENG NOI POOL VILLA #3375	SAMUI
4 CHAWENG REGENT BEACH RESORT #962	SAMUI
4 CODE SAMUI #3377	SAMUI
4 DEVA SAMUI RESORT & SPA #967	SAMUI
4 FAIR HOUSE VILLAS & SPA #969	SAMUI
4 FENIX BEACH RESORT SAMUI #970	SAMUI
4 IMPERIAL BOAT HOUSE BEACH RESORT (THE) #982	SAMUI
4 IMPERIAL SAMUI BEACH(THE) #9458656	SAMUI
4 IMPIANA RESORT CHAWENG NOI, KOH SAMUI #984	SAMUI
4 KANDABURI RESORT & SPA #989	SAMUI
4 KANOK BURI RESORT & SPA #990	SAMUI
4 KIRIKAYAN BOUTIQUE RESORT #993	SAMUI
4 Lanna Samui Luxury Resort #3381	SAMUI
4 MAI SAMUI BEACH RESORT & SPA #1002	SAMUI
4 MANATHAI KOH SAMUI #9458657	SAMUI
4 MIMOSA RESORT & SPA #1006	SAMUI
4 MOVENPICK LAEM YAI, BEACH SAMUI (OLD Passage Resort ) #105319	SAMUI
4 NORA BEACH RESORT & SPA #1012	SAMUI
4 NOVOTEL SAMUI RESORT CHAWENG BEACH #9458658	SAMUI
4 PANALEE RESORT #3386	SAMUI
4 PARADISE BEACH RESORT #1018	SAMUI
4 PARADISE KOH SAMUI(THE) #9458659	SAMUI
4 Pavilion Samui Villas & Resort  (ex. PAVILION SAMUI BOUTIQUE RESORT) #1021	SAMUI
4 PEACE RESORT #1022	SAMUI
4 Rocky's Boutique Resort #3389	SAMUI
4 Royal Beach Boutique Resort and Spa #3390	SAMUI
4 RUMMANA BOUTIQUE RESORT #1028	SAMUI
4 SABOEY RESORT & VILLAS #1029	SAMUI
4 SAMUI BURI BEACH RESORT #1032	SAMUI
4 SAMUI PALM BEACH RESORT #1039	SAMUI
4 SAMUI PARADISE CHAWENG RESORT & SPA #9458660	SAMUI
4 SAMUI RESOTEL BEACH RESORT #1041	SAMUI
4 SARANN (THE) #1048	SAMUI
4 SAREE SAMUI NATURES FINEST #1049	SAMUI
4 Scent Hotel #3397	SAMUI
4 SEA KOH SAMUI (THE) #1052	SAMUI
4 SEA VALLEY HOTEL & SPA #3398	SAMUI
4 SUNSET BEACH RESORT & SPA (THE) #1057	SAMUI
4 SYNERGY SAMUI #9458661	SAMUI
4 WHITE HOUSE BEACH RESORT & SPA #1065	SAMUI
4 ZAZEN BOUTIQUE RESORT & SPA #3402	SAMUI
3S ABSOLUTE SANCTUARY SAMUI #3369	SAMUI
3S AL’S LAEMSON #919	SAMUI
3S Baan Talay Pool Villa #3419	SAMUI
3S Baan Talay Resort #3418	SAMUI
3S BEST WESTERN SAMUI BAYVIEW RESORT & SPA #950	SAMUI
3S CENTRA COCONUT BEACH RESORT SAMUI #955	SAMUI
3S CHAWENG COVE BEACH RESORT #913	SAMUI
3S CHAWENG RESORT #4003	SAMUI
3S COCO PALM BEACH RESORT #3376	SAMUI
3S FAIR HOUSE BEACH RESORT & HOTEL (THE) #968	SAMUI
3S OZO CHAWENG #1852	SAMUI
3S SAMAYA BURA #3393	SAMUI
3S SAMUI CLIFF VIEW RESORT & SPA #1033	SAMUI
3S SAMUI JASMINE RESORT #1037	SAMUI
3S Tradewinds by Lawana Hotel #3399	SAMUI
3 AL’S RESORT #920	SAMUI
3 ALOHA RESORT #917	SAMUI
3 ARAYABURI BOUTIQUE RESORT, SAMUI #927	SAMUI
3 AVENUE SAMUI(THE) #9458662	SAMUI
3 BAAN CHAWENG BEACH RESORT & SPA #1718	SAMUI
3 BAAN HIN SAI RESORT & SPA #929	SAMUI
3 Ban Sabai Big Buddha Hotel #3372	SAMUI
3 BILL RESORT #943	SAMUI
3 CHABA SAMUI RESORT #957	SAMUI
3 CHAWENG BEACH COMBER #9458663	SAMUI
3 CHAWENG LAKEVIEW CONDOTEL #3374	SAMUI
3 CITIN URBANA SAMUI #1725	SAMUI
3 CORAL COVE CHALET #965	SAMUI
3 CRYSTAL BAY YACTH CLUB BEACH RESORT (ex. SAMUI YACHT CLUB BEACH RESORT & SPA) #1044	SAMUI
3 FIRST BUNGALOW BEACH RESORT #971	SAMUI
3 FIRST HOUSE #9458664	SAMUI
3 FIRST RESIDENCE HOTEL #973	SAMUI
3 GRAND THAI HOUSE #9458665	SAMUI
3 Hammock Samui Beach Resort #3379	SAMUI
3 IBIS SAMUI BOPHUT #980	SAMUI
3 KOH SAMUI RESORT #9458666	SAMUI
3 LAMAI BURI RESORT #3380	SAMUI
3 LAMAI WANTA BEACH RESORT #998	SAMUI
3 LAWANA RESORT #999	SAMUI
3 Lazy Day's Samui Beach Resort #3382	SAMUI
3 LIPA LOVELY RESORT #1732	SAMUI
3 MALIBU BEACH RESORT #1003	SAMUI
3 MARINA BEACH RESORT #9458667	SAMUI
3 NATURAL WING HEALTH SPA & RESORT #1737	SAMUI
3 NORA CHAWENG HOTEL #1014	SAMUI
3 NORA LAKEVIEW HOTEL #3385	SAMUI
3 PINNACLE SAMUI RESORT & SPA #3387	SAMUI
3 PUNNPREEDA BEACH RESORT #3388	SAMUI
3 RAJAPRUEK SAMUI RESORT #1025	SAMUI
3 ROOM CHAWENG (THE) #1740	SAMUI
3 SAMUI FIRST HOUSE HOTEL #1034	SAMUI
3 SAMUI HOME & RESORT #1035	SAMUI
3 SAMUI ISLAND BEACH RESORT #9458668	SAMUI
3 SAMUI LAGUNA RESORT #3394	SAMUI
3 SAMUI NATIEN RESORT #3395	SAMUI
3 SAMUI SENSE BEACH RESORT #1042	SAMUI
3 SAMUI VERTICOLOR #1043	SAMUI
3 SAND SEA RESORT & SPA #3396	SAMUI
3 THAI AYODHYA VILLA & SPA #1058	SAMUI
3 THAI HOUSE BEACH RESORT #1059	SAMUI
3 VARINDA GARDEN RESORT #3400	SAMUI
3 WEEKENDER RESORT #1064	SAMUI
5 CHAMS HOUSE #9458702	KOOD
5 SONEVA KIRI RESORT #444	KOOD
4 AWAY KOH KOOD RESORT #439	KOOD
4 CHAM`S HOUSE #441	KOOD
3 BEACH KOH KOOD (THE) #9458703	KOOD
3 BEACH NATURAL RESORT #440	KOOD
3 KOH KOOD BEACH RESORT #3117	KOOD
3 KOH KOOD CABANA #9458704	KOOD
3 TINKERBELL PRIVACY RESORT #3118	KOOD
 Удивительный Таиланд #3812	PHANGNGA
5 ALEENTA RESORT & SPA PHUKET – PHANGNGA #487	PHANGNGA
5 INIALA BEACH HOUSE #1849	PHANGNGA
5 LE CORAL HIDEAWAY BEYOND PHUKET #1867	PHANGNGA
5 MAIKHAO DREAM RESORT AND SPA, NATAI, PHANG NGA #1806	PHANGNGA
4 JAMAHKIRI RESORT & SPA #1788	TAO
4 KOH TAO MONTRA RESORT & SPA #658	TAO
4 PINNACLE KOH TAO DIVE RESORT #1789	TAO
3S CHARM CHUREE VILLAGE #9458698	TAO
3S DUSIT BUNCHA RESORT KOH TAO #1787	TAO
3 KOH TAO CORAL GRAND RESORT #576	TAO
3 KOH TAO HILLSIDE RESORT #1858	TAO
3 SENSI PARADISE BEACH RESORT #9458699	TAO
5 NAKA ISLAND, A LUXURY COLLECTION RESORT AND SPA, PHUKET (THE) #666	ISLANDS NEAR PHUKET
5 RACHA (THE) #715	ISLANDS NEAR PHUKET
5 SANTHIYA KOH YAO YAI RESORT & SPA #1516	ISLANDS NEAR PHUKET
5 SIX SENSES YAO NOI #747	ISLANDS NEAR PHUKET
5 VILLAGE COCONUT ISLAND PHUKET (THE) #775	ISLANDS NEAR PHUKET
4 Paradise @ Koh Yao. #680	ISLANDS NEAR PHUKET
4 Rayaburi Resort  RACHA ISLAND #3108	ISLANDS NEAR PHUKET
5 ANANTARA RASANANDA KOH PHANGAN VILLA RESORT & SPA #926	PHANGAN
5 SANTHIYA KOH PHANGAN RESORT & SPA #1046	PHANGAN
4 BURI RASA VILLAGE KOH PHANGAN #1860	PHANGAN
4 CHANTARAMAS RESORT & SPA #1845	PHANGAN
4 PANVIMAN RESORT KOH PHANGAN #678	PHANGAN
4 PARIYA RESORT & VILLAS KOH PHANGAN #1019	PHANGAN
4 SALAD BURI RESORT & SPA #3392	PHANGAN
3 HAAD YAO BAY VIEW RESORT & SPA #9458696	PHANGAN
3 LONG BAY RESORT #3116	PHANGAN
3 PHANGAN BAYSHORE RESORT #9458697	PHANGAN
3 SALAD BEACH RESORT #4011	PHANGAN
5 ANANTARA SI KAO RESORT & SPA #786	TRANG
5 LANTA CHA-DA BEACH RESORT #855	LANTA
5 LAYANA RESORT & SPA #859	LANTA
5 PIMALAI RESORT & SPA #862	LANTA
5 RAWI WARIN RESORT & SPA #863	LANTA
5 TWIN LOTUS RESORT & SPA #3115	LANTA
4 CROWN LANTA RESORT & SPA #854	LANTA
4 LANTA RESORT #3114	LANTA
4 LANTA SAND RESORT & SPA #858	LANTA
4 PHRA NANG LANTA #9458532	LANTA
3 ANDAMAN LANTA RESORT #851	LANTA
3 LANTA MANDA #9458694	LANTA
3 LANTA SEA FRONT #9458695	LANTA
3 NAKARA LONG BEACH RESORT #860	LANTA
5 ZEAVOLA RESORT #883	PHI PHI
4S Phi Phi Island Village Beach Resort (ex. OUTRIGGER PHI PHI ISLAND RESORT & SPA) #870	PHI PHI
4 HOLIDAY INN RESORT PHI PHI ISLAND #869	PHI PHI
4 PHI PHI ISLAND CABANA HOTEL #877	PHI PHI
3 ARAYABURI RESORT & BAY VIEW RESORT #867	PHI PHI
3 P.P. ERAWAN PALMS RESORT #871	PHI PHI
3 Paradise Pearl Bungalow #3109	PHI PHI
3 PHI PHI CASITA #875	PHI PHI
3 PHI PHI HOTEL #876	PHI PHI
3 PHI PHI NATURAL RESORT #878	PHI PHI
3 PHI PHI THE BEACH RESORT #3111	PHI PHI
3 PHI PHI VILLA RESORT #882	PHI PHI
5 Casa de La Flora, Khao Lak   #3701	KHAO LAK
5 JW MARRIOTT KHAO LAK RESORT & SPA #889	KHAO LAK
5 KANTARY BEACH HOTEL VILLAS & SUITES #3001	KHAO LAK
5 MAI KHAO LAK BEACH RESORT & SPA #903	KHAO LAK
5 MORACEA BY KHAO LAK RESORT #3106	KHAO LAK
5 Pullman Khao Lak Katiliya Resort and Villas #3000	KHAO LAK
5 SANDS KHAO LAK BY KATATHANI (THE) #908	KHAO LAK
5 SENTIDO GRACELAND KHAOLAK RESORT & SPA #3107	KHAO LAK
4S APSARA BEACHFRONT RESORT AND VILLA #885	KHAO LAK
4S KHAOLAK LAGUNA RESORT #896	KHAO LAK
4 ANDAMANIA BEACH RESORT & SPA #9458688	KHAO LAK
4 BEYOND RESORT KHAOLAK #887	KHAO LAK
4 Briza Beach Resort Khaolak (THE) #888	KHAO LAK
4 CENTARA SEAVIEW RESORT KHAO LAK (old KHAOLAK SEAVIEW RESORT & SPA MANAGED BY CENTARA) #900	KHAO LAK
4 KANTARY BEACH KHAO LAK #890	KHAO LAK
4 KHAO LAK DIAMOND BEACH RESORT & SPA #891	KHAO LAK
4 KHAO LAK PALM BEACH #893	KHAO LAK
4 KHAO LAK RESORT #9458689	KHAO LAK
4 KHAO LAK WANABUREE RESORT #9458690	KHAO LAK
4 KHAOLAK EMERALD BEACH RESORT & SPA #895	KHAO LAK
4 Khaolak Merlin Resort #3105	KHAO LAK
4 LA FLORA RESORT & SPA KHAO LAK #3101	KHAO LAK
4 MANATHAI KHAO LAK #9458691	KHAO LAK
4 MUKDARA BEACH VILLA & SPA RESORT #904	KHAO LAK
4 RAMADA KHAO LAK RESORT #907	KHAO LAK
4 TAKOLABURI CULTURAL, SPA & SPORT RESORT #912	KHAO LAK
3S Waters Khao Lak (The) #3814	KHAO LAK
3 BAAN KRATING KHAOLAK #9458692	KHAO LAK
3 KHAOLAK GOLDEN PLACE #892	KHAO LAK
3 KHAOLAK MOHIN TARA #898	KHAO LAK
3 KHAOLAK PARADISE RESORT #899	KHAO LAK
3 LEAF BY KATATHANI (THE) #9458693	KHAO LAK
3 PALM GALLERIA RESORT #906	KHAO LAK
3 SUDALA BEACH RESORT #910	KHAO LAK
3 SUWAN PALM RESORT #1534	KHAO LAK
4 CENTARA CHAAN TALAY RESORT & VILLAS TRAT #4015	TRAT
5 BOTANICA KHAO YAI #9458705	NAKHON RATCHASIMA
4 ESCAPE KHAO YAI SANSIRI HOTEL COLLECTION #4016	NAKHON RATCHASIMA
3 KORAT RESORT HOTEL #9458706	NAKHON RATCHASIMA
