hotel_id-LEFT	area-LEFT	web_site-LEFT	basic_info-LEFT	table_rooms-LEFT	room_services-LEFT	site_services-LEFT	pool_head-LEFT	pool_body-LEFT	table_mice-LEFT	children_services-LEFT	table_restaurants-LEFT	sports_ents-LEFT	beach_head-LEFT	beach_body-LEFT	cards-LEFT	deposit-LEFT	ceo-LEFT	comments_sayama-LEFT	@icon_video-LEFT	@icon_rate-LEFT	@icon_check-LEFT	@icon_location-LEFT	@icon_center-LEFT	@icon_build_at-LEFT	@icon_refresh-LEFT	@icon_vip-LEFT	@icon_lowcost-LEFT	@icon_mice-LEFT	@icon_honey-LEFT	@icon_family-LEFT	@icon_active-LEFT	@icon_relax-LEFT	icon_location_text-LEFT	icon_build_at_text-LEFT	icon_refresh_text-LEFT	check_in-LEFT	check_out-LEFT	exported-LEFT	name-LEFT
384	LAEM MAE PHIM	www.marriottrayongresort.com	Открыт в 2013 году. Расположен в 188 км от международного аэропорта Суванапум (Бангкок), в 72 км от аэропорта У-Тапао, в провинции Районг, в 21 км от центра города Районг, на берегу моря. Неподалеку находятся аквариум (Rayong Aquarium,17 км), Парк приключений (The Park Adventure Land, 14 км) и несколько национальных парков. Отель представляет собой 11-этажное здание в современном стиле. Всего 205 номеров.	Deluxe Mountain View Room;63;40;3;MV#Deluxe Ocean View Room;104;40;3;SV#Premier Ocean View Room;20;67;3;SV#Studio Corner Suite;8;77;3;SV/MV#One-Bedroom Ocean Suite;9;80;3;SV#The Ocean Suite;1;163;3;SV	Гостиная, раздельные спальни (One-Bedroom Ocean Suite, The Ocean Suite)#Дверь между спальней и гостиной (One-Bedroom Ocean Suite, The Ocean Suite)#Столовая#Балкон, терраса#Индивидуальный кондиционер#Телевизор (русские каналы)#IDD-телефон (прямой международный набор), часы-радио#Стереосистема (по запросу)#Интернет (Wi-Fi, LAN) — $#Утюг, гладильная доска#Мини-бар — $#Холодильник#Сейф#Набор для приготовления кофе и чая#Душ, ванна, халат и тапочки, фен#Зеркало для макияжа#Туалетные принадлежности#Свежие фрукты по прибытии (One-Bedroom Ocean Suite)#Напольное покрытие в спальне – дерево#Отделка ванной – мрамор	Сейф на ресепшен, обмен валют#Спа-центр, массаж, cауна — $#Интернет (Wi-Fi)#Прачечная — $#Аренда автомобиля — $#Парковка#Камеры хранения багажа#Транспорт от отеля — $#Курсы батика — $#Курсы карвинга — $#Сувенирный магазин#Места и оборудование для инвалидов	Два открытых бассейна для взрослых и один для детей	Бар, кафе – $, охрана#Массаж — $#Полотенца#Шезлонги, зонтики	!empty!	Детская кроватка (по запросу)#Детское питание (по запросу)#Детские стулья, меню в ресторане#Игровая комната, водные горки	Fish Bar;12:00 – 17:00 #18:30 – 22:00;Морепродукты, международная#C Salt Cafe;07:00 – 10:00 #11:00 – 22:30;Тайская, индийская, международная#Java+;07:00 – 20:00;Выпечка, кофейня#Water Bar;09:00 – 19:00;Бар у бассейна#The Lounge;13:00 – 24:00;Бар#Sync;17:00 – 01:00;Бар	Пляжный футбол, волейбол#Аэробика, аквааэробика, йога#Дискотека – $#Школа дайвинга – $#Тайский бокс, баскетбол#Теннисные столы, фитнес-центр#Водные виды спорта, каяки#Гольф, прокат велосипедов — $	Доступ к двум общественным пляжам (песчаный, каменистый, понтон)	Бар, кафе — $#Массаж — $#Охрана #Полотенца, шезлонги, зонтики#	Visa, MasterCard, American Express, Diners, JCB	Наличными или по кредитной карте; 1000 THB за сутки	Mr. Trevor May	Последнее прибавление во всемирно известной отельной семье Marriott.#Как и предыдущие отели, держит высокую планку качества. Подойдет для#бизнес-путешественников, для проведения любых мероприятий, а также для#спокойного пляжного отдыха вдали от туристических троп.	S:\PRINT PRODUCTION\2015\CATALOGUE 2016\!COLLECT\01 MAINLAND\03 HOTEL BLOCK RAYONG++ Folder\Links\16_video.eps	S:\PRINT PRODUCTION\2015\CATALOGUE 2016\!COLLECT\01 MAINLAND\03 HOTEL BLOCK RAYONG++ Folder\Links\5rayong.eps	S:\PRINT PRODUCTION\2015\CATALOGUE 2016\!COLLECT\01 MAINLAND\03 HOTEL BLOCK RAYONG++ Folder\Links\01_time.eps	S:\PRINT PRODUCTION\2015\CATALOGUE 2016\!COLLECT\01 MAINLAND\03 HOTEL BLOCK RAYONG++ Folder\Links\04_beach.eps		S:\PRINT PRODUCTION\2015\CATALOGUE 2016\!COLLECT\01 MAINLAND\03 HOTEL BLOCK RAYONG++ Folder\Links\07_build.eps				S:\PRINT PRODUCTION\2015\CATALOGUE 2016\!COLLECT\01 MAINLAND\03 HOTEL BLOCK RAYONG++ Folder\Links\11_mice.eps	S:\PRINT PRODUCTION\2015\CATALOGUE 2016\!COLLECT\01 MAINLAND\03 HOTEL BLOCK RAYONG++ Folder\Links\12_honey.eps	S:\PRINT PRODUCTION\2015\CATALOGUE 2016\!COLLECT\01 MAINLAND\03 HOTEL BLOCK RAYONG++ Folder\Links\13_famaly.eps	S:\PRINT PRODUCTION\2015\CATALOGUE 2016\!COLLECT\01 MAINLAND\03 HOTEL BLOCK RAYONG++ Folder\Links\14_active.eps		!empty!	2013	!empty!	15:00	12:00	0	RAYONG MARRIOTT RESORT AND SPA
3227	NAMRIN	www.kantarycollection.com	Открыт в 1999 году, частично реновирован в 2014-м. Расположен в 154 км от международного аэропорта Суванапум (Бангкок), в провинции Районг, через дорогу от моря. состоит из двух корпусов высотой 8 и 11 этажей. Оформлен в современном классическом стиле. Всего 194 номера.	Studio Suite;42;40;2+1;SV#One Bedroom Suite;112;70;2+2;SV#Two Bedroom Suite;38;135;4+2;SV#Three Bedroom Suite;2;165;6+2;SV	Гостиная (кроме Studio Suite)#Балкон#Индивидуальный кондиционер#Телевизор, стереосистема#Часы-радио, сейф#Интернет (Wi-Fi, LAN) #Холодильник, печь СВЧ#Набор для приготовления кофе и чая#Халат и тапочки#Фен#Душ, ванна#Туалетные принадлежности#Гипоаллергенная подушка#Напольное покрытие в спальне — ламинат#Отделка ванной — плитка	Сейф на ресепшен#Обмен валют#Массаж — $, джакузи, сауна#Интернет-кафе, Интернет (Wi-Fi)#Библиотека#Прачечная — $#Утюг, гладильная доска#Камеры хранения багажа#Транспорт от отеля — $#Парковка	Два открытых бассейна для взрослых (7х11 м, 6х15 м) и один для детей	Полотенца#Шезлонги, зонтики	Seahorse;163;160;100;80;220;46#Dolphin 1 & 2;223;220;117;120;250;40#Marlin 1;36;20;—;—;—;—#Marlin 2;26;14;—;—;—;—#Banquet Room;240;120;—;160;250 -;	Детская кроватка#Услуги няни — $#Детские стулья в ресторане#Детская площадка	No.43 Italian Bistro;06:00 – 24:00;Итальянская, тайская, международная#Corner Bar;—;Бар в лобби	Бильярд, настольный теннис#Боулинг, сквош — $#Фитнес-центр#Теннисные корты, уроки тенниса — $	Общественный, песчано-каменистый	!empty!	Visa, MasterСard, American Express, Diners, JCB	По копии кредитной карты; сумма зависит от типа номера	Khun Sathavuth Sermprasert	Отель, расположенный на берегу моря, предлагает к размещению комфортабельные номера с видом на Сиамский залив. Подойдет для семейного отдыха.		S:\PRINT PRODUCTION\2015\CATALOGUE 2016\!COLLECT\01 MAINLAND\03 HOTEL BLOCK RAYONG++ Folder\Links\4rayong_r.eps	S:\PRINT PRODUCTION\2015\CATALOGUE 2016\!COLLECT\01 MAINLAND\03 HOTEL BLOCK RAYONG++ Folder\Links\01_time_r.eps	S:\PRINT PRODUCTION\2015\CATALOGUE 2016\!COLLECT\01 MAINLAND\03 HOTEL BLOCK RAYONG++ Folder\Links\02_road_r.eps			S:\PRINT PRODUCTION\2015\CATALOGUE 2016\!COLLECT\01 MAINLAND\03 HOTEL BLOCK RAYONG++ Folder\Links\08_refresh_r.eps					S:\PRINT PRODUCTION\2015\CATALOGUE 2016\!COLLECT\01 MAINLAND\03 HOTEL BLOCK RAYONG++ Folder\Links\13_famaly_r.eps	S:\PRINT PRODUCTION\2015\CATALOGUE 2016\!COLLECT\01 MAINLAND\03 HOTEL BLOCK RAYONG++ Folder\Links\14_active_r.eps		10 м	!empty!	2014	14:00	12:00	0	KANTARY BAY HOTEL RAYONG
385	RIM PAE	www.novotel.com/1130	Открыт в 1990 году, частично реновирован в 2015-м. Расположен в 200 км от международного аэропорта Суванапум, в 30 км от центра города Районг, на берегу моря. Включает основное 4-этажное здание, два 3-этажных крыла и виллы различного типа. Всего 189 номеров.	Standard Room;54;34.43;2+1;GV#Superior Main Wing;46;31.97;2+1;GV#Superior Garden;70;30.92;2+1;GV/PV#Junior Suite;4;59.53;2+2;GV#Superior Suite;2;65.59;2+2;GV#Deluxe Suite;3;72.70;2+2;GV#Villa Studio;2;37.22;2;GV#Villa Family;4;125.19;4+2;GV	Гостиная (номера Suite, Villa Family)#Балкон, терраса#Индивидуальный кондиционер#Телевизор (русские каналы)#Интернет (Wi-Fi)#Сейф#Мини-бар — $#Xолодильник#Набор для приготовления кофе и чая#Халат и тапочки#Фен, душ, ванна#Зеркало для макияжа#Туалетные принадлежности#Напольное покрытие в спальне — плитка#Отделка ванной — плитка	Сейф на ресепшен, обмен валют#Спа-центр, массаж — $#Сауна — $#Интернет (Wi-Fi)#Почта, курьер#Прачечная — $#Утюг, гладильная доска — $#Транспорт от отеля, парковка#Камеры хранения багажа#Курсы тайской кухни, батика, карвинга — $#Cувениры, мини-маркет#Места и оборудование для инвалидов	Два открытых бассейна для взрослых и один для детей	Бар, кафе, массаж — $, охрана#Полотенца, шезлонги, зонтики	!empty!	Услуги няни — $, детская кроватка#Детские стулья, меню в ресторане#Анимация, игровая комната#Детская площадка, водные горки	Agora;06:30 – 10:30;Завтраки#The Garden Restaurant;05:00 – 11:00,#пт-вс#11:00 – 23:00;Тайская#The Shore Restaurant;11:00 – 23:00;Итальянская#Бар у бассейна;09:00 – 19:00;Бар#Biscuit Тea Room;—;Выпечка	Аквааэробика, фитнес-центр#Мини-футбол#Волейбол#Прокат велосипедов — $#Настольный теннис#Яхт-клуб, аренда катера — $	Принадлежит нескольким отелям, песчаный	Кафе, бар, массаж — $, охрана#Полотенца, шезлонги, зонтики	Visa, MasterCard, American Express	Наличными, по кредитной карте, по копии кредитной карты; сумма зависит от количества дней и типа номера	Mr. Terry Butt-Gow	Отель расположен в густом тропическом саду на берегу моря. Прекрасно подойдет как для пребывания с детьми, так и для уединенного отдыха вдали от популярных туристических направлений.	S:\PRINT PRODUCTION\2015\CATALOGUE 2016\!COLLECT\01 MAINLAND\03 HOTEL BLOCK RAYONG++ Folder\Links\16_video.eps	S:\PRINT PRODUCTION\2015\CATALOGUE 2016\!COLLECT\01 MAINLAND\03 HOTEL BLOCK RAYONG++ Folder\Links\4rayong.eps	S:\PRINT PRODUCTION\2015\CATALOGUE 2016\!COLLECT\01 MAINLAND\03 HOTEL BLOCK RAYONG++ Folder\Links\01_time.eps	S:\PRINT PRODUCTION\2015\CATALOGUE 2016\!COLLECT\01 MAINLAND\03 HOTEL BLOCK RAYONG++ Folder\Links\04_beach.eps			S:\PRINT PRODUCTION\2015\CATALOGUE 2016\!COLLECT\01 MAINLAND\03 HOTEL BLOCK RAYONG++ Folder\Links\08_refresh.eps			S:\PRINT PRODUCTION\2015\CATALOGUE 2016\!COLLECT\01 MAINLAND\03 HOTEL BLOCK RAYONG++ Folder\Links\11_mice.eps	S:\PRINT PRODUCTION\2015\CATALOGUE 2016\!COLLECT\01 MAINLAND\03 HOTEL BLOCK RAYONG++ Folder\Links\12_honey.eps	S:\PRINT PRODUCTION\2015\CATALOGUE 2016\!COLLECT\01 MAINLAND\03 HOTEL BLOCK RAYONG++ Folder\Links\13_famaly.eps	S:\PRINT PRODUCTION\2015\CATALOGUE 2016\!COLLECT\01 MAINLAND\03 HOTEL BLOCK RAYONG++ Folder\Links\14_active.eps		!empty!	!empty!	2015	14:00	12:00	0	NOVOTEL RAYONG RIM PAE RESORT
1834	LAEM MAE PHIM	www.bandararayong.com	Открыт в 1995 году, реновирован в 2012-м. Расположен в 190 км от аэропорта Суванапум (Бангкок), в 70 км от аэропорта У-Тапао, в провинции Районг, у моря. Состоит из 1- и 2-этажных коттеджей в современном тайском стиле. Всего 72 номера.	Baansiri Cottage;30;25;2+1;PV/GV#Siri Garden;6;29;2+1;GV#Deluxe Garden View;3;39;2+1;GV#Deluxe Sea View;20;39;2+1;SV#Deluxe Corner Sea View;8;50;2+1;SV#Leelawadee Suite;1;72;2+1;SV#Prow Suite;1;170;4+2;SV#Beach Front Pool Villa;2;152;4+2;SV#Beach Front Family House;1;210;6+2;SV	Гостиная (Prow Suite, Beach Front Family House), терраса#Индивидуальный кондиционер#Сейф#Стереосистема (номера Suite)#Телевизор, Интернет (Wi-Fi)#Мини-бар — $#Холодильник#Набор для приготовления кофе и чая#Халат и тапочки (кроме Baansiri Cottage)#Фен#Ванна (Deluxe Corner Sea View), душ#Джакузи (Beach Front Pool Villa)#Зеркало для макияжа#Туалетные принадлежности#Напольное покрытие в спальне — плитка; отделка ванной — плитка	Массаж — $#Интернет (Wi-Fi)#Прачечная — $#Аренда автомобиля — $#Парковка#Камеры хранения багажа#Мини-маркет#Сувенирный магазин#Места и оборудование для инвалидов	Два открытых бассейна для взрослых и детей (5х15 м, 7х15.5 м)	Бар — $#Полотенца, шезлонги, зонтики	Khun Ta;133.9;120;80;60;60;45	Детская кроватка#Услуги няни — $#Детские стулья, меню в ресторане#Детская площадка	Prow Talay Restaurant and Bar;07:30 – 23:00;Международная, тайская, морепродукты	Пляжный футбол, волейбол#Бильярд#Фитнес-центр#Настольный теннис	Отельный, песчаный	Охрана#Полотенца#Шезлонги#Зонтики#	Visa, MasterCard, American Express, Diners	Наличными, по кредитной карте, по копии кредитной карты; сумма зависит от количества дней и типа номера	Mr. Matthew C. Hindmarch	Отель имеет прекрасное расположение — на тихом, спокойном курорте Таиланда. Обслуживание и удобства, предлагаемые в отеле, обеспечат гостям приятное времяпровождение.	S:\PRINT PRODUCTION\2015\CATALOGUE 2016\!COLLECT\01 MAINLAND\03 HOTEL BLOCK RAYONG++ Folder\Links\16_video.eps	S:\PRINT PRODUCTION\2015\CATALOGUE 2016\!COLLECT\01 MAINLAND\03 HOTEL BLOCK RAYONG++ Folder\Links\3+rayong_r.eps	S:\PRINT PRODUCTION\2015\CATALOGUE 2016\!COLLECT\01 MAINLAND\03 HOTEL BLOCK RAYONG++ Folder\Links\01_time_r.eps	S:\PRINT PRODUCTION\2015\CATALOGUE 2016\!COLLECT\01 MAINLAND\03 HOTEL BLOCK RAYONG++ Folder\Links\04_beach_r.eps			S:\PRINT PRODUCTION\2015\CATALOGUE 2016\!COLLECT\01 MAINLAND\03 HOTEL BLOCK RAYONG++ Folder\Links\08_refresh_r.eps				S:\PRINT PRODUCTION\2015\CATALOGUE 2016\!COLLECT\01 MAINLAND\03 HOTEL BLOCK RAYONG++ Folder\Links\12_honey_r.eps	S:\PRINT PRODUCTION\2015\CATALOGUE 2016\!COLLECT\01 MAINLAND\03 HOTEL BLOCK RAYONG++ Folder\Links\13_famaly_r.eps		S:\PRINT PRODUCTION\2015\CATALOGUE 2016\!COLLECT\01 MAINLAND\03 HOTEL BLOCK RAYONG++ Folder\Links\15_relax_r.eps	!empty!	!empty!	2012	14:00	12:00	0	BANDARA ON SEA, RAYONG
1836	PHALA	www.royalplalacliffbeach.com	Открыт в 2012 году (Royal Wing), реновирован в 2013-м. Расположен в двух с половиной часах езды от Бангкока, в 15 км от аэропорта У-Тапао (Паттайя), в 40 км от Паттайи, в Районге, на пляже Пхала. Включает три крыла — Phala Wing (4 этажа), Royal Wing (6 этажей), Front Beach Wing (4 этажа), оформленные в современном стиле. Из всех номеров открывается вид на море. Всего 312 номеров.	Deluxe;78;40;2+2;SV#Mini Suite;4;48;3+2;SV#Family Suite;8;60;4+2;SV#Pavilion;96;35;2+2;SV#Paradise;36;53;2+2;SV#Royal Paradise;12;78;4+2;SV#Panorama;78;35;2+2;SV	Гостиная (Family Suite), балкон#Раздельные спальни (Family Suite)#Внешняя зона отдыха (стол, стулья)#Индивидуальный кондиционер#Сейф, телевизор (русские каналы)#Интернет (Wi-Fi, LAN)#Холодильник#Халат и тапочки#Фен#Душ, ванна, зеркало для макияжа#Туалетные принадлежности#Бесплатная местная газета#Напольное покрытие в спальне — плитка; отделка ванной — плитка	Обмен валют#Массаж — $#Интернет (Wi-Fi)#Прачечная — $, утюг#Библиотека#Аренда автомобиля — $, парковка#Камеры хранения багажа#Курсы тайской кухни — $#Продуктовый магазин#Cувенирный магазин	Один открытый бассейн для взрослых и детей	Бар, кафе — $#Массаж — $#Спасатели, охрана#Полотенца, шезлонги, зонтики	Piman Plala;996;100;50;–;60;30#Dadfa Chomtalay;150;140;80;–;100;60#Diamond Cliff;570;400;300;–;500;150#Silver Cliff, Golden Cliff;285;200;120;–;200;100	Детская кроватка#Услуги няни — $#Детское питание (по запросу)#Детские стулья, меню в ресторане#	Wiman Lom Restaurant;06:00 – 24:00;Европейская, тайская#Бар на пляже, в лобби;–;Бар	Пляжный футбол, волейбол#Бильярд, дартс, настольный теннис#Фитнес-центр#Гольф (по запросу) — $	Отельный, песчаный, понтон	Массаж — $, охрана #Полотенца, шезлонги, зонтики#	Visa, MasterCard, American Express	Нет	Mr. Jakrapan Prasacha	Отель удобно расположен: всего в нескольких минутах от района Бан Чанг, на восхитительном пляже, откуда открываются прекрасные виды. Номера стильно оформлены. Хороший вариант как для семейного отдыха, так и для туристов, прибывающих с деловым визитом.		S:\PRINT PRODUCTION\2015\CATALOGUE 2016\!COLLECT\01 MAINLAND\03 HOTEL BLOCK RAYONG++ Folder\Links\3+rayong.eps	S:\PRINT PRODUCTION\2015\CATALOGUE 2016\!COLLECT\01 MAINLAND\03 HOTEL BLOCK RAYONG++ Folder\Links\01_time.eps				S:\PRINT PRODUCTION\2015\CATALOGUE 2016\!COLLECT\01 MAINLAND\03 HOTEL BLOCK RAYONG++ Folder\Links\08_refresh.eps			S:\PRINT PRODUCTION\2015\CATALOGUE 2016\!COLLECT\01 MAINLAND\03 HOTEL BLOCK RAYONG++ Folder\Links\11_mice.eps		S:\PRINT PRODUCTION\2015\CATALOGUE 2016\!COLLECT\01 MAINLAND\03 HOTEL BLOCK RAYONG++ Folder\Links\13_famaly.eps	S:\PRINT PRODUCTION\2015\CATALOGUE 2016\!COLLECT\01 MAINLAND\03 HOTEL BLOCK RAYONG++ Folder\Links\14_active.eps		!empty!	!empty!	2013	14:00	12:00	0	ROYAL PHALA CLIFF BEACH
3229	MAE RAM PHUENG	www.vipresort.info	Открыт в 2013 году. Расположен в 185 км от международного аэропорта Суванапум (Бангкок), в провинции Районг, на пляже Мэ Рам Пхыанг. Состоит из двух 5-этажных зданий. Всего 50 номеров.	Standard Room;10;43;2+2;—#Superior Room;30;43;2+2;—#Deluxe Room;6;58;2+2;—#Family Room;4;86;4+2;–	Гостиная, балкон#Индивидуальный кондиционер#Телевизор#Интернет (Wi-Fi) — $#Мини-бар — $#Холодильник#Набор для приготовления кофе и чая#Душ#Туалетные принадлежности#Напольное покрытие в спальне — плитка#Отделка ванной — плитка	Сейф на ресепшен#Обмен валют#Спа-центр, салон красоты — $#Массаж, медицинские услуги — $#Интернет (Wi-Fi)#Прачечная — $#Аренда автомобиля — $, парковка#Транспорт от отеля — $	Один открытый бассейн для взрослых и детей	Бар — $#Полотенца, шезлонги, зонтики	!empty!	Детская кроватка#Детская площадка#Детские стулья в ресторане	The Oriental Club;08:00 – 22:00;Тайская, международная#Бар у бассейна;08:00 – 22:00;Бар	Прокат велосипедов — $#Настольный теннис — $, дартс#Фитнес-центр — $#Мини-гольф — $	Общественный, песчаный	Полотенца	Visa, MasterCard, American Express	Наличными; 1000 THB за весь период	!empty!	Отель расположен в провинции Районг, откуда можно легко добраться до острова Самед. Подойдет для семейного отдыха.	S:\PRINT PRODUCTION\2015\CATALOGUE 2016\!COLLECT\01 MAINLAND\03 HOTEL BLOCK RAYONG++ Folder\Links\16_video.eps	S:\PRINT PRODUCTION\2015\CATALOGUE 2016\!COLLECT\01 MAINLAND\03 HOTEL BLOCK RAYONG++ Folder\Links\3+rayong_r.eps	S:\PRINT PRODUCTION\2015\CATALOGUE 2016\!COLLECT\01 MAINLAND\03 HOTEL BLOCK RAYONG++ Folder\Links\01_time_r.eps	S:\PRINT PRODUCTION\2015\CATALOGUE 2016\!COLLECT\01 MAINLAND\03 HOTEL BLOCK RAYONG++ Folder\Links\02_road_r.eps		S:\PRINT PRODUCTION\2015\CATALOGUE 2016\!COLLECT\01 MAINLAND\03 HOTEL BLOCK RAYONG++ Folder\Links\07_build_r.eps						S:\PRINT PRODUCTION\2015\CATALOGUE 2016\!COLLECT\01 MAINLAND\03 HOTEL BLOCK RAYONG++ Folder\Links\13_famaly_r.eps	S:\PRINT PRODUCTION\2015\CATALOGUE 2016\!COLLECT\01 MAINLAND\03 HOTEL BLOCK RAYONG++ Folder\Links\14_active_r.eps		400 м	2013	!empty!	13:00	11:00	0	THE ROYAL TROPICAL BEACH AT VIP CHAIN RESORT
3228	MAE RAM PHUENG	www.nicebeachhotel.com	Открыт в 2006 году, реновирован в 2014-м. Расположен в 175 км от международного аэропорта Суванапум (Бангкок), в провинции Районг, через дорогу от моря. Представляет собой одно 9-этажное здание. Всего 84 номера.	Cubical;3;35;2+1;–#Superior;30;35;2+1;PMV#Super Superior;10;35;2+1;PSV#Deluxe;20;35;2+1;MV#Super Deluxe;10;35;2+1;PSV#Executive;11;57;2+3;PSV	Балкон (кроме Cubical)#Индивидуальный кондиционер #Телевизор#Сейф #Интернет (Wi-Fi) – $#Мини-бар – $#Холодильник#Душ#Ванна (кроме Superior)#Зеркало для макияжа#Туалетные принадлежности #Напольное покрытие в спальне – плитка#Отделка ванной – плитка	Интернет-кафе, Интернет (Wi-Fi)#Прачечная — $#Аренда автомобиля — $#Транспорт от отеля — $, парковка #Камеры хранения багажа#Мини-маркет#	Один открытый бассейн для взрослых и детей (5х15 м, глубина – 1.8 м)	Полотенца — $ #Шезлонги#	Conference Room;75;100;80;—;—;—	Детская кроватка	Restaurant;07:00 – 21:00;Тайская, западная	!empty!	Общественный, песчаный	Массаж — $#Полотенца, шезлонги, зонтики — $	Visa, MasterCard	Наличными; 200 THB за весь период	!empty!	Отель расположен у моря, что делает его привлекательным для любителей пляжного отдыха. Недалеко находится пирс, откуда можно добраться до острова Самед с белоснежным пляжем.		S:\PRINT PRODUCTION\2015\CATALOGUE 2016\!COLLECT\01 MAINLAND\03 HOTEL BLOCK RAYONG++ Folder\Links\3rayong.eps	S:\PRINT PRODUCTION\2015\CATALOGUE 2016\!COLLECT\01 MAINLAND\03 HOTEL BLOCK RAYONG++ Folder\Links\01_time.eps				S:\PRINT PRODUCTION\2015\CATALOGUE 2016\!COLLECT\01 MAINLAND\03 HOTEL BLOCK RAYONG++ Folder\Links\08_refresh.eps		S:\PRINT PRODUCTION\2015\CATALOGUE 2016\!COLLECT\01 MAINLAND\03 HOTEL BLOCK RAYONG++ Folder\Links\10_low.eps			S:\PRINT PRODUCTION\2015\CATALOGUE 2016\!COLLECT\01 MAINLAND\03 HOTEL BLOCK RAYONG++ Folder\Links\13_famaly.eps			15 м	!empty!	2014	14:00	12:00	0	NICE BEACH HOTEL
3807	MAE RAM PHUENG	www.sea-sand-sun-resort.info	Открыт в 2012 году. Расположен в 180 км от международного аэропорта Суванапум (Бангкок), в провинции Районг, в нескольких минутах ходьбы от пляжа Мэ Рам Пхыанг. Представляет собой одно 8-этажное здание. Всего 20 номеров.	Standard Room;6;39;2+1;—#Superior Room;5;39;2+2;—#Deluxe Room;3;39;2+2;—#Deluxe Room with kitchen;6;39;2+2;—	Балкон#Индивидуальный кондиционер#Телевизор#Интернет (Wi-Fi) — $#Мини-бар — $ #Холодильник#Набор для приготовления кофе и чая (кроме Standard Room)#Душ, туалетные принадлежности#Напольное покрытие в спальне — ковролин#Отделка ванной — плитка	Обмен валют#Интернет (Wi-Fi) — $ (бесплатно #в лобби)#Спа-центр, массаж — $#Медицинские услуги — $#Прачечная — $#Аренда автомобиля — $#Транспорт от отеля — $, парковка	Один открытый бассейн для взрослых и детей	Полотенца#Шезлонги, зонтики	Meeting Room;400;250;10-50;120;400;–	Детская кроватка — $	Restaurant;08:00 – 17:00;Международная, тайская#Бар в лобби;10:00 – 17:00;Бар	Настольный теннис — $	Общественный, песчаный	Полотенца	!empty!	Наличными; 1000 THB за весь период	!empty!	Отель предлагает размещение в современных номерах типа студио, располагающих всем необходимым для проживания, в некоторых комнатах – даже кухней.	S:\PRINT PRODUCTION\2015\CATALOGUE 2016\!COLLECT\01 MAINLAND\03 HOTEL BLOCK RAYONG++ Folder\Links\16_video.eps	S:\PRINT PRODUCTION\2015\CATALOGUE 2016\!COLLECT\01 MAINLAND\03 HOTEL BLOCK RAYONG++ Folder\Links\3rayong_r.eps	S:\PRINT PRODUCTION\2015\CATALOGUE 2016\!COLLECT\01 MAINLAND\03 HOTEL BLOCK RAYONG++ Folder\Links\01_time_r.eps	S:\PRINT PRODUCTION\2015\CATALOGUE 2016\!COLLECT\01 MAINLAND\03 HOTEL BLOCK RAYONG++ Folder\Links\02_road_r.eps		S:\PRINT PRODUCTION\2015\CATALOGUE 2016\!COLLECT\01 MAINLAND\03 HOTEL BLOCK RAYONG++ Folder\Links\07_build_r.eps						S:\PRINT PRODUCTION\2015\CATALOGUE 2016\!COLLECT\01 MAINLAND\03 HOTEL BLOCK RAYONG++ Folder\Links\13_famaly_r.eps			450 м	2012	!empty!	13:00	11:00	0	SEA SAND SUN RESORT
