hotel_id-LEFT	area-LEFT	web_site-LEFT	basic_info-LEFT	table_rooms-LEFT	room_services-LEFT	site_services-LEFT	pool_head-LEFT	pool_body-LEFT	table_mice-LEFT	children_services-LEFT	table_restaurants-LEFT	sports_ents-LEFT	beach_head-LEFT	beach_body-LEFT	cards-LEFT	deposit-LEFT	ceo-LEFT	comments_sayama-LEFT	@icon_video-LEFT	@icon_rate-LEFT	@icon_check-LEFT	@icon_location-LEFT	@icon_center-LEFT	@icon_build_at-LEFT	@icon_refresh-LEFT	@icon_vip-LEFT	@icon_lowcost-LEFT	@icon_mice-LEFT	@icon_honey-LEFT	@icon_family-LEFT	@icon_active-LEFT	@icon_relax-LEFT	icon_location_text-LEFT	icon_build_at_text-LEFT	icon_refresh_text-LEFT	check_in-LEFT	check_out-LEFT	exported-LEFT	name-LEFT
926	TONG NAI PAN NOI 	www.anantara.com	Открыт в 2008 году, реновирован в 2012-м. Расположен в 25 км от аэропорта Самуи, в 30 минутах на катере от острова Самуи, на северо-восточном побережье острова Пханган, у пляжа Тонг Най Пан Ной. Все номера светлы и просторны. Совершенно новый подход к подбору отделочных материалов и их цветов придает необычайную свежесть ощущениям. Всего 64 номера.	Pool Suite;14;100;2+1;GV#Garden Pool Suite;14;130;2+1;GV#Lagoon Pool Villa;4;140;2+1;LGV#Thai Pool Villa;4;180;2+1;GV#Ocean Pool Suite;11;100;2+1;SV#Ocean Garden Pool Suite;11;200;2+1;SV#Ocean Pool Villa;6;260;2+1;SV	Балкон (Pool Suite, Ocean Pool Suite)#Внешняя зона отдыха (Lagoon Pool Villa, Ocean Garden Pool Suite, Ocean Pool Villa)#Индивидуальный кондиционер#Телевизор, стереосистема, сейф#Док-станция для iPod #Интернет (Wi-Fi)#Мини-бар — $#Холодильник#Набор для приготовления кофе и чая#Халат и тапочки, фен#Ванна (Ocean Pool Villa), душ#Зеркало для макияжа#Туалетные принадлежности#Гипоаллергенная подушка#Свежие фрукты по прибытии#Напольное покрытие в спальне — дерево #Отделка ванной — мрамор	Обмен валют#Спа-центр — $#Массажный салон — $#Джакузи, сауна#Интернет (Wi-Fi)#Почта, курьер#Прачечная — $#Парковка #Библиотека#Курсы тайской кухни, карвинга — $	Два открытых бассейна	Бар — $#Полотенца, шезлонги, зонтики	!empty!	Детская кроватка#Услуги няни — $#Детское питание (по запросу)#Детские стулья в ресторане#Детское меню	Bistro at The Beach;07:00 – 11:00;Тайская, вегетарианская, морепродукты#Бар на пляже;11:00 – 22:00;Бар	Пляжный футбол (по запросу)#Пляжный волейбол (по запросу)#Школа дайвинга — $#Фитнес-центр#Футбол (по запросу)#Волейбол (по запросу)#Каноэ#Йога — $	Пляж принадлежит нескольким отелям, общественный	Бар — $#Охрана #Полотенца#Шезлонги, зонтики#	Visa, MasterCard, American Express, Diners	Нет	!empty!	В отеле продумано все: приватная атмосфера роскошных вилл, специальные программы в великолепном спа-центре, разнообразие развлечений на любой вкус, утонченная кухня в элегантном ресторане, превосходная коллекция вин и шампанского в стильном баре.		S:\PRINT PRODUCTION\2015\CATALOGUE 2016\!COLLECT\03 EXOTIC\Links\5phangan.eps	S:\PRINT PRODUCTION\2015\CATALOGUE 2016\!COLLECT\03 EXOTIC\Links\01_time.eps	S:\PRINT PRODUCTION\2015\CATALOGUE 2016\!COLLECT\03 EXOTIC\Links\04_beach.eps			S:\PRINT PRODUCTION\2015\CATALOGUE 2016\!COLLECT\03 EXOTIC\Links\08_refresh.eps	S:\PRINT PRODUCTION\2015\CATALOGUE 2016\!COLLECT\03 EXOTIC\Links\09_vip.eps			S:\PRINT PRODUCTION\2015\CATALOGUE 2016\!COLLECT\03 EXOTIC\Links\12_honey.eps	S:\PRINT PRODUCTION\2015\CATALOGUE 2016\!COLLECT\03 EXOTIC\Links\13_famaly.eps	S:\PRINT PRODUCTION\2015\CATALOGUE 2016\!COLLECT\03 EXOTIC\Links\14_active.eps	S:\PRINT PRODUCTION\2015\CATALOGUE 2016\!COLLECT\03 EXOTIC\Links\15_relax.eps	!empty!	!empty!	2012	14:00	12:00	0	ANANTARA RASANANDA KOH PHANGAN VILLA RESORT & SPA
1046	TONG NAI PAN NOI 	www.santhiya.com	Открыт в июле 2006 года. Расположен в 30 минутах плавания на скоростном катере от острова Самуи, на живописном острове Пханган, на территории площадью 7 га. Из отеля открывается панорамный вид на море. Изящные двухэтажные здания и отдельно стоящие виллы, окруженные пышной тропической растительностью, оформлены в традиционном тайском стиле. Всего 99 номеров.	Deluxe;20;43;2+2;SV#Supreme Deluxe;10;48;2+2;SV#Supreme Deluxe — Pool Access;10;48;2+2;GV#Hideaway Pool Villa Suite;24;115;2+2;GV#Sea View Pool Villa Suite;25;115;2+2;SV#Sea View Pool Villa Suite Plus;6;115;2+2;SV#Royal Grand Pool Villa Suite;4;197;4+4;SV	Балкон#Внешняя зона отдыха, терраса (кроме Deluxe, Supreme Deluxe, Supreme Deluxe — Pool Access)#Индивидуальный кондиционер#Телевизор, стереосистема #Сейф#Док-станция для iPod (Grand Pool)#Интернет (Wi-Fi)#Мини-бар — $#Холодильник#Набор для приготовления кофе и чая#Халат и тапочки, фен#Ванна, душ#Джакузи (кроме Deluxe, Supreme Deluxe, Supreme Deluxe — Pool Access)#Зеркало для макияжа#Туалетные принадлежности#Гипоаллергенная подушка#Свежие фрукты по прибытии (кроме Deluxe, Supreme Deluxe, Supreme Deluxe — Pool Access)#Напольное покрытие в спальне — дерево#Отделка ванной — керамика	Сейф на ресепшен#Обмен валют#Спа-центр, массажный салон — $#Джакузи#Интернет (Wi-Fi – в ресторане, лобби, номерах)#Прачечная — $#Транспорт от отеля#Библиотека #Курсы тайской кухни — $#Винный погреб#Сувенирный магазин#	Два открытых бассейна для взрослых и детей (1200 м2 и 800 м2)	Бар, массаж — $#Спасатели, охрана#Полотенца #Шезлонги, зонтики#	!empty!	Детская кроватка#Услуги няни — $#Детские стулья в ресторане#Детское меню	Chantara;07:00 – 23:00;Европейская, тайская, вегетарианская, морепродукты#By the Sea & Bar;10:00 – 22:30;Бар на пляже и у бассейна	Фитнес-центр, каякинг#Йога — $	Принадлежит нескольким отелям, песчано-каменистый	Полотенца#Шезлонги, зонтики	Visa, MasterCard, American Express	Наличными или по кредитной карте; сумма зависит от количества дней и типа номера	Mr. Danny K. Sukomol	Восхитительный отель, отмеченный в 2009 году престижной наградой World Luxury Hotels Awards, расположен в чудесной бухте, у белоснежного пляжа, омываемого кристально чистым морем. Стильные номера с кондиционером обставлены элегантной мебелью из тикового дерева.		S:\PRINT PRODUCTION\2015\CATALOGUE 2016\!COLLECT\03 EXOTIC\Links\5phangan_r.eps	S:\PRINT PRODUCTION\2015\CATALOGUE 2016\!COLLECT\03 EXOTIC\Links\01_time_r.eps	S:\PRINT PRODUCTION\2015\CATALOGUE 2016\!COLLECT\03 EXOTIC\Links\04_beach_r.eps				S:\PRINT PRODUCTION\2015\CATALOGUE 2016\!COLLECT\03 EXOTIC\Links\09_vip_r.eps			S:\PRINT PRODUCTION\2015\CATALOGUE 2016\!COLLECT\03 EXOTIC\Links\12_honey_r.eps			S:\PRINT PRODUCTION\2015\CATALOGUE 2016\!COLLECT\03 EXOTIC\Links\15_relax_r.eps	!empty!	!empty!	!empty!	14:00	12:00	0	SANTHIYA KOH PHANGAN RESORT & SPA
1860	TONG NAI PAN NOI 	www.burirasa.com/phangan	Открыт в 2012 году. Расположен в 30 минутах езды на скоростном катере от аэропорта Самуи, на острове Пханган, на берегу моря. Включает семь 2- и 3-этажных зданий. Всего 65 номеров в тайском стиле.	Deluxe;13;35;2+1;—#Deluxe Pool View;35;35;2+1;PV#Ocean View Deluxe;10;45;2+1;SV#Ocean Front Deluxe;10;45;2+1;SV	Балкон#Индивидуальный кондиционер#Телевизор#Интернет (Wi-Fi)#Сейф#Мини-бар — $#Холодильник#Набор для приготовления кофе и чая#Фен, душ, ванна#Зеркало для макияжа#Туалетные принадлежности#Свежие фрукты по прибытии#Напольное покрытие в спальне — бетон; отделка ванной — бетон	Сейф на ресепшен#Спа-центр, салон красоты — $#Медицинские услуги — $#Интернет-кафе, Интернет (Wi-Fi)#Прачечная — $#Утюг, гладильная доска#Библиотека#Почта, курьер#Транспорт от отеля — $, парковка#Камеры хранения багажа#Курсы тайской кухни, карвинга — $#Сувенирный магазин	Один открытый бассейн для взрослых и детей (глубина — 1.2 м)	Бар — $#Массаж — $#Охрана #Полотенца, шезлонги, зонтики#	!empty!	Детская кроватка#Услуги няни — $#Детские стулья в ресторане#Детское меню	Beach Club;07:00 – 23:00;Тайская, международная, морепродукты#Бар на пляже;10:00 – 01:00;Бар	Фитнес-центр#Йога — $#Каноэ	Общественный, песчаный	Бар — $#Массаж — $#Охрана #Полотенца, шезлонги, зонтики#	Visa, MasterСard, American Express, Diners, JCB	По кредитной карте; сумма зависит от типа номера	Mr. Boonwit Leakdee	Отель расположен на прекрасном пляже: здесь и стройные пальмы, и белоснежный песок, и чистейшее море. Расслабьтесь и получите удовольствие от красоты острова и высокого уровня сервиса, предоставленного персоналом.	S:\PRINT PRODUCTION\2015\CATALOGUE 2016\!COLLECT\03 EXOTIC\Links\16_video.eps	S:\PRINT PRODUCTION\2015\CATALOGUE 2016\!COLLECT\03 EXOTIC\Links\4phangan.eps	S:\PRINT PRODUCTION\2015\CATALOGUE 2016\!COLLECT\03 EXOTIC\Links\01_time.eps	S:\PRINT PRODUCTION\2015\CATALOGUE 2016\!COLLECT\03 EXOTIC\Links\04_beach.eps		S:\PRINT PRODUCTION\2015\CATALOGUE 2016\!COLLECT\03 EXOTIC\Links\07_build.eps					S:\PRINT PRODUCTION\2015\CATALOGUE 2016\!COLLECT\03 EXOTIC\Links\12_honey.eps	S:\PRINT PRODUCTION\2015\CATALOGUE 2016\!COLLECT\03 EXOTIC\Links\13_famaly.eps	S:\PRINT PRODUCTION\2015\CATALOGUE 2016\!COLLECT\03 EXOTIC\Links\14_active.eps		!empty!	2012	!empty!	14:00	12:00	0	BURI RASA VILLAGE KOH PHANGAN
1845	BAAN KHAI 	www.chantaramas.com	Открыт в августе 2011 года. Расположен в 15 км от аэропорта Самуи, на острове Пханган, на пляже Баан Кхай. Включает несколько 2-этажных зданий в современном стиле. Всего 46 номеров.	Deluxe Room;20;52-69;3;GV#Supreme Deluxe Room;8;52-70;3;GV#Supreme Deluxe with Jacuzzi;12;52-70;3;SV#Family Room;2;85;4;GV#Private Pool Villa;4;146;3;SV	Балкон, терраса#Внешняя зона отдыха (стол, стулья)#Индивидуальный кондиционер#Интернет (Wi-Fi)#Телевизор (русские каналы)#Сейф#Мини-бар — $, холодильник#Набор для приготовления кофе и чая#Халат и тапочки, фен#Ванна, душ#Джакузи (кроме Deluxe, Supreme Deluxe)#Туалетные принадлежности#Гипоаллергенная подушка#Свежие фрукты по прибытии#Напольное покрытие в спальне — дерево#Отделка ванной — плитка	Сейф на ресепшен#Обмен валют#Спа-центр, массаж, сауна — $#Интернет (Wi-Fi)#Прачечная — $#Утюг, гладильная доска#Аренда автомобиля (по запросу)#Транспорт от отеля — $, парковка#Камеры хранения багажа#Сувенирный магазин#Курсы тайской кухни — $#Места и оборудование для инвалидов	Один открытый бассейн для взрослых и один для детей (глубина — 1.5 м)	Бар, кафе — $#Массаж — $#Спасатели #Полотенца, шезлонги, зонтики#	Meeting Room;40;35;25;—;30;—	Детская кроватка (по запросу)#Услуги няни — $	Moon Deck Restaurant;07:00 – 23:00;Европейская, тайская, вегетарианская, морепродукты#Бар у бассейна;10:00 – 18:00;Бар	Водные горки — $#Бильярд — $#Пляжный волейбол#Йога — $#Стрельба из лука — $	Только у данного отеля есть доступ к этому пляжу, песчаный	Бар — $#Массаж — $#Полотенца #Шезлонги, зонтики#	Visa, MasterCard	Наличными или по кредитной карте; 5000 THB за весь период	Mr. Chantana Limsuwan	Отель расположен всего в 10 минутах от популярного пляжа Хаад Рин, где проходят всемирно известные Full Moon Party (Вечеринка полной луны), а также неподалеку от города Тонгсала.		S:\PRINT PRODUCTION\2015\CATALOGUE 2016\!COLLECT\03 EXOTIC\Links\4phangan_r.eps	S:\PRINT PRODUCTION\2015\CATALOGUE 2016\!COLLECT\03 EXOTIC\Links\01_time_r.eps	S:\PRINT PRODUCTION\2015\CATALOGUE 2016\!COLLECT\03 EXOTIC\Links\04_beach_r.eps		S:\PRINT PRODUCTION\2015\CATALOGUE 2016\!COLLECT\03 EXOTIC\Links\07_build_r.eps					S:\PRINT PRODUCTION\2015\CATALOGUE 2016\!COLLECT\03 EXOTIC\Links\12_honey_r.eps		S:\PRINT PRODUCTION\2015\CATALOGUE 2016\!COLLECT\03 EXOTIC\Links\14_active_r.eps	S:\PRINT PRODUCTION\2015\CATALOGUE 2016\!COLLECT\03 EXOTIC\Links\15_relax_r.eps	!empty!	2011	!empty!	14:00	12:00	0	CHANTARAMAS RESORT & SPA
678	TONG NAI PAN NOI 	www.panviman.com	Открыт в 1988 году, полностью реновирован — в 2011-м. Расположен в 15 км от острова Самуи, на острове Пханган с его тропическими лесами, зелеными долинами, кокосовыми рощами и уединенными пляжами, на пляже Тонг Най Пан Ной. Отельный комплекс включает комнаты, коттеджи и виллы в тайском стиле. Всего 72 номера.	Superior Hotel Room;18;32.4;2+1;SV/GV#Deluxe Hotel Room;10;44;2+1;SV#Deluxe Cottage;22;51;2+1;SV/GV#Family Cottage;4;40;4+1;SV/GV#Pool Villa;14;109;2+1;SV/GV#Spa Villa;3;80;2+1;SV/GV#President Suite;1;121;2+1;SV/GV	Гостиная (President Suite)#Балкон#Внешняя зона отдыха (стол, стулья)#Индивидуальный кондиционер#Сейф#Телевизор, стереосистема#Интернет (Wi-Fi)#Утюг, гладильная доска#Мини-бар — $#Холодильник#Набор для приготовления кофе и чая#Халат и тапочки, фен#Ванна, душ#Джакузи (Pool Villa, Spa Villa, President Suitе)#Зеркало для макияжа#Туалетные принадлежности#Свежие фрукты по прибытии#Напольное покрытие в спальне — ковролин, дерево, плитка, бетон#Отделка ванной — мрамор, плитка, дерево, бетон	Сейф на ресепшен, обмен валют#Спа-центр, медицинские услуги — $#Сауна#Интернет-кафе, Интернет (Wi-Fi)#Прачечная — $, почта, курьер#Библиотека#Транспорт от отеля#Камеры хранения багажа, парковка#Курсы тайской кухни#Мини-маркет, сувениры	Один открытый бассейн для взрослых и один для детей (150 м2, глубина — 1.5 м)	Бар, кафе — $#Массаж — $#Охрана, спасатели #Полотенца, шезлонги, зонтики	!empty!	Детская кроватка#Услуги няни — $#Детское питание, детское меню#Детские стулья в ресторане#Игровая комната#Водные горки	Restaurant;–;Международная#Stone Beach Bar;13:00 – 22:00;Бар на пляже, бар на крыше#Pool Desk Bar;13:00 – 22:00;Бар у бассейна	Пляжный волейбол#Прокат велосипедов#Фитнес-центр#Мини-футбол	Принадлежит данному отелю, песчаный	Кафе, бар — $#Охрана#Шезлонги, зонтики#Полотенца	Visa, MasterCard, American Express, Diners	Нет	Mr. Jesada Bhiromsiri	Отель — участник объединения The Green Leaf Foundation, обладатель престижной награды ASEAN Tourism Standard Award, присужденной за роскошную зеленую территорию площадью 30 акров.		S:\PRINT PRODUCTION\2015\CATALOGUE 2016\!COLLECT\03 EXOTIC\Links\4phangan.eps	S:\PRINT PRODUCTION\2015\CATALOGUE 2016\!COLLECT\03 EXOTIC\Links\01_time.eps	S:\PRINT PRODUCTION\2015\CATALOGUE 2016\!COLLECT\03 EXOTIC\Links\04_beach.eps			S:\PRINT PRODUCTION\2015\CATALOGUE 2016\!COLLECT\03 EXOTIC\Links\08_refresh.eps				S:\PRINT PRODUCTION\2015\CATALOGUE 2016\!COLLECT\03 EXOTIC\Links\12_honey.eps	S:\PRINT PRODUCTION\2015\CATALOGUE 2016\!COLLECT\03 EXOTIC\Links\13_famaly.eps		S:\PRINT PRODUCTION\2015\CATALOGUE 2016\!COLLECT\03 EXOTIC\Links\15_relax.eps	!empty!	!empty!	2011	14:00	12:00	0	PANVIMAN RESORT KOH PHANGAN
1019	HAAD YUAN 	www.pariyahaadyuan.com	Построен в 2007 году. Расположен в 45 минутах плавания на скоростном катере от Самуи, на острове Пханган, на берегу моря. Включает 39 вилл в восточном стиле, окруженных тропическим садом.	Deluxe Villa;34;88;3/2+1;SV/GV#Jacuzzi Villa;3;105;3/2+1;GV#Sweet Villa;1;115;3/2+1;SV#Twin Villa (2 villas);1;196;6/4+2;SV	Терраса#Индивидуальный кондиционер#Сейф #DVD-плеер#Tелевизор (русские каналы)#Интернет (Wi-Fi)#Мини-бар – $#Холодильник#Набор для приготовления кофе и чая#Халат и тапочки#Фен, душ#Ванна (кроме Sweet Villa и Twin Villa)#Джакузи (кроме Deluxe Villa)#Туалетные принадлежности	Спа-центр — $#Джакузи#Сауна#Интернет-кафе, Интернет (Wi-Fi)#Библиотека#Прачечная — $#Утюг, гладильная доска (по запросу) #Спидбот от отеля (по запросу)#Камеры хранения багажа #Мини-маркет	Один открытый бассейн для взрослых и детей (глубина – 1.5 м)	Полотенца #Шезлонги, зонтики#	!empty!	Детская кроватка#Услуги няни — $#Детское меню#Детская комната	The Palm Restaurant;–;Международная, тайская#Бар на пляже;–;Бар	Пляжный футбол, волейбол#Бильярд#Школа дайвинга (по запросу)#Каноэ	Пляж песчаный, принадлежит нескольким отелям	Бар — $#Полотенца, шезлонги, зонтики	Visa, MasterCard	Наличными или по кредитной карте; сумма зависит от количества дней и типа номера	!empty!	Отель расположен на прекрасном песчаном пляже Хаад Юан, от которого лишь 20 минут на катере до Самуи. Прекрасно подходит для пляжного отдыха вдали от техноцивилизации, но в условиях комфорта.		S:\PRINT PRODUCTION\2015\CATALOGUE 2016\!COLLECT\03 EXOTIC\Links\4phangan_r.eps	S:\PRINT PRODUCTION\2015\CATALOGUE 2016\!COLLECT\03 EXOTIC\Links\01_time_r.eps	S:\PRINT PRODUCTION\2015\CATALOGUE 2016\!COLLECT\03 EXOTIC\Links\04_beach_r.eps							S:\PRINT PRODUCTION\2015\CATALOGUE 2016\!COLLECT\03 EXOTIC\Links\12_honey_r.eps			S:\PRINT PRODUCTION\2015\CATALOGUE 2016\!COLLECT\03 EXOTIC\Links\15_relax_r.eps	!empty!	!empty!	!empty!	14:00	12:00	0	PARIYA RESORT & VILLAS KOH PHANGAN
3392	HAAD SALAD 	www.saladburi.com	Открыт в 2009 году, частично реновирован в 2013-м. Расположен в 30 минутах езды на катере от острова Самуи, на побережье острова Пханган, на пляже Хаад Салад. Представляет собой комплекс из основного здания с номерами и 19 вилл. Оформлен в изысканном тайском стиле. Всего 63 номера.	Standard Room;13;20;2;GV#Grand Deluxe;5;—;4;BV/GV#Premier Room;13;—;3;GV#Family Room;13;—;5;GV#Private Pool Villa;14;—;4;GV#Lagoon Pool Villa;5;—;4;LGV	Балкон (Grand Deluxe, Family Room)#Терраса (Pool Villa)#Индивидуальный кондиционер#Сейф #Телевизор#DVD-плеер#Интернет (Wi-Fi)#Мини-бар — $, холодильник#Набор для приготовления кофе и чая#Халат и тапочки#Фен, душ#Ванна (кроме Standard, Premier Room)#Туалетные принадлежности#Зонтик	Интернет (Wi-Fi) — $#Спа-центр, массаж — $#Парковка#Прачечная — $	Один открытый бассейн для взрослых и детей	Полотенца #Шезлонги#	!empty!	Детская кроватка — $#Услуги няни — $#Детское меню	Restaurant;—;Тайская, западная, морепродукты#Beach Front Restaurant;—;Тайская, западная	!empty!	Общественный, песчаный	Полотенца#	Visa, MasterCard	Нет	!empty!	Идеальное место, чтобы расслабиться и освежиться среди красот великолепной тайской природы.		S:\PRINT PRODUCTION\2015\CATALOGUE 2016\!COLLECT\03 EXOTIC\Links\4phangan.eps	S:\PRINT PRODUCTION\2015\CATALOGUE 2016\!COLLECT\03 EXOTIC\Links\01_time.eps	S:\PRINT PRODUCTION\2015\CATALOGUE 2016\!COLLECT\03 EXOTIC\Links\04_beach.eps			S:\PRINT PRODUCTION\2015\CATALOGUE 2016\!COLLECT\03 EXOTIC\Links\08_refresh.eps				S:\PRINT PRODUCTION\2015\CATALOGUE 2016\!COLLECT\03 EXOTIC\Links\12_honey.eps				!empty!	!empty!	2013	13:00	11:00	0	SALAD BURI RESORT & SPA
3116	HAAD YUAN 	www.longbay-resort.com	Открыт в 2002 году. Расположен в 30 минутах езды на катере от острова Самуи, на побережье острова Пханган. Представляет собой комплекс из 32 коттеджей. Оформлен в тайском стиле.	Standart Garden Cottage;10;32;2+1;GV#Superior Seaside Cottage;3;32;2+1;PV & GV#Superior Poolsite Cottage;7;32;2+1;PV#Deluxe Beachpool Cottage;8;32;2+1;PV/SV#Deluxe Beachfront Cottage;4;32;2+1;SV	Балкон#Индивидуальный кондиционер#Телевизор #Сейф#Интернет (Wi-Fi)#Холодильник#Фен, душ#Туалетные принадлежности#	Массаж — $#Медицинские услуги — $#Прачечная — $	Один открытый бассейн для взрослых и детей	Полотенца#Шезлонги, зонтики	!empty!	Детская кроватка — $ (300 THB) #Детское питание, детское меню	Restaurant;07:00 – 10:00;Завтраки#Lounges & Bar;—;Бар	Прокат велосипедов — $#Фитнес-центр — $#Каноэ — $	Общественный, песчаный	Массаж — $#Полотенца, шезлонги	Visa, MasterCard, American Express	Нет	!empty!	Отель является замечательным местом для любителей природы и пляжного отдыха. К услугам гостей – комфортабельные номера, бассейн и бар с видом на море.		S:\PRINT PRODUCTION\2015\CATALOGUE 2016\!COLLECT\03 EXOTIC\Links\3phangan_r.eps	S:\PRINT PRODUCTION\2015\CATALOGUE 2016\!COLLECT\03 EXOTIC\Links\01_time_r.eps	S:\PRINT PRODUCTION\2015\CATALOGUE 2016\!COLLECT\03 EXOTIC\Links\04_beach_r.eps							S:\PRINT PRODUCTION\2015\CATALOGUE 2016\!COLLECT\03 EXOTIC\Links\12_honey_r.eps		S:\PRINT PRODUCTION\2015\CATALOGUE 2016\!COLLECT\03 EXOTIC\Links\14_active_r.eps		!empty!	!empty!	!empty!	14:00	12:00	0	LONG BAY RESORT
4011	HAAD SALAD 	www.phangan-saladbeachresort.com	Открыт в 2006 году, реновирован в 2013-м. Расположен в 30 минутах езды на скоростном катере от аэропорта Самуи, на острове Пханган, в 100 м от моря. Состоит из двух малоэтажных зданий. #Всего 26 номеров.	Superior Beach Front Bungalow;2;28;2+1;BV#Superior Pool View Bungalow;9;28;2+1;PV#Superior Garden View Bungalow;9;28;2+1;GV#Superior Sea Side Room;8;20;2+1;SV#Superiro Main Building Room;26;20;2+1;GV	Балкон, терраса,#Внешняя зона отдыха#Индивидуальный кондиционер#Телевизор#Холодильник #Душ#Напольное покрытие в спальне — плитка	Сейф на ресепшен#Обмен валют#Массаж — $ #Почта, курьер#Прачечная — $#Утюг — $#Транспорт от отеля#Парковка#Аренда автомобиля#Камеры хранения багажа#Мини-маркет, сувенирный магазин#Курсы тайской кухни — $	Один открытый бассейн для взрослых и детей	Полотенца #Шезлонги, зонтики#	!empty!	Детская кроватка#Услуги няни — $#Детские стулья в ресторане#Детское меню	Cuttaleeya Restaurant;06:30 – 22:30;Международная, тайская	!empty!	Песчаный, принадлежит нескольким отелям	Бар#Массаж — $#Охрана #Полотенца, шезлонги, зонтики#	Visa, MasterСard, American Express	Нет	Ms. Siriluck Piriyasatit	Отель находится в 20 км от пляжа Хаад Рин, где проводится знаменитая Вечеринка полной луны.		S:\PRINT PRODUCTION\2015\CATALOGUE 2016\!COLLECT\03 EXOTIC\Links\3phangan.eps	S:\PRINT PRODUCTION\2015\CATALOGUE 2016\!COLLECT\03 EXOTIC\Links\01_time.eps	S:\PRINT PRODUCTION\2015\CATALOGUE 2016\!COLLECT\03 EXOTIC\Links\04_beach.eps			S:\PRINT PRODUCTION\2015\CATALOGUE 2016\!COLLECT\03 EXOTIC\Links\08_refresh.eps								!empty!	!empty!	2013	14:00	11:00	0	SALAD BEACH RESORT
