hotel_id-LEFT	area-LEFT	web_site-LEFT	basic_info-LEFT	table_rooms-LEFT	room_services-LEFT	site_services-LEFT	pool_head-LEFT	pool_body-LEFT	table_mice-LEFT	children_services-LEFT	table_restaurants-LEFT	sports_ents-LEFT	beach_head-LEFT	beach_body-LEFT	cards-LEFT	deposit-LEFT	ceo-LEFT	comments_sayama-LEFT	@icon_video-LEFT	@icon_rate-LEFT	@icon_check-LEFT	@icon_location-LEFT	@icon_center-LEFT	@icon_build_at-LEFT	@icon_refresh-LEFT	@icon_vip-LEFT	@icon_lowcost-LEFT	@icon_mice-LEFT	@icon_honey-LEFT	@icon_family-LEFT	@icon_active-LEFT	@icon_relax-LEFT	icon_location_text-LEFT	icon_build_at_text-LEFT	icon_refresh_text-LEFT	check_in-LEFT	check_out-LEFT	exported-LEFT	name-LEFT
396	AO KIEW NA NOK	www.samedresorts.com/paradee	Открыт в 2006 году. Расположен в южной части острова Самед, в 3 часах езды от Бангкока, в 8 км от центра острова, на белоснежном пляже Ao Kиo Нa Нок. Имеет 2 выхода на пляж. Включает 40 отдельно стоящих вилл. Подходит для романтического отдыха.	Garden Villa;10;100;2+1;GV#Garden Pool Villa;16;100;2+1;GV#Beach Front Pool Villa;13;100;2+1;SV#Suite Villa;1;200;2+1;SV	Терраса, гостиная#Внешняя зона отдыха (стол, стулья)#Индивидуальный кондиционер#Телевизор, стереосистема #Сейф#Интернет (Wi-Fi, LAN)#Мини-бар — $#Холодильник#Набор для приготовления кофе и чая#Халат и тапочки, фен#Ванна, душ, джакузи#Зеркало для макияжа#Туалетные принадлежности#Свежие фрукты ежедневно#Напольное покрытие — бетон, дерево#Отделка ванной — бетон	Обмен валют, сейф на ресепшен#Спа-центр — $#Салон красоты — $#Массаж — $#Джакузи#Интернет-кафе, Интернет (Wi-Fi)#Прачечная — $#Кинотеатр — $, библиотека#Аренда автомобиля — $#Трансфер до материка#Парковка #Камеры хранения багажа#	Один открытый бассейн	Бар, массаж — $, охрана#Полотенца, шезлонги, зонтики	Board Room;–;70;45;40/60;80;26	Детская кроватка (по запросу)	The Restaurant;07:00 – 23:00;Международная, тайская#Sun Set Bar;17:00 – 10:30;Бар#Бар у бассейна;09:00 – 18:00;Бар	Школа дайвинга — $#Фитнес-центр	Один открытый бассейн	Бар, массаж — $, охрана#Полотенца, шезлонги, зонтики	Visa, MasterСard, American Express	Нет	!empty!	Эксклюзивный отель для уединенного отдыха. Гостей ждут высокий уровень сервиса, стильные номера, белоснежный пляж.		S:\PRINT PRODUCTION\2015\CATALOGUE 2016\!COLLECT\03 EXOTIC\Links\5samed.eps	S:\PRINT PRODUCTION\2015\CATALOGUE 2016\!COLLECT\03 EXOTIC\Links\01_time.eps	S:\PRINT PRODUCTION\2015\CATALOGUE 2016\!COLLECT\03 EXOTIC\Links\04_beach.eps							S:\PRINT PRODUCTION\2015\CATALOGUE 2016\!COLLECT\03 EXOTIC\Links\12_honey.eps			S:\PRINT PRODUCTION\2015\CATALOGUE 2016\!COLLECT\03 EXOTIC\Links\15_relax.eps	!empty!	!empty!	!empty!	14:00	12:00	0	PARADEE RESORT
391	AO PHRAO	www.samedresorts.com/levimarn	Открыт в 2000 году, частично реновирован в 2009-м (Premier Villa Hillside). Расположен на западном побережье острова Самед, на пляже Ао Прао, в 3 часах езды от Бангкока, в часе езды от Паттайи, в 15 минутах от центра острова — пляжа Сай Кео, на берегу моря. Включает 31 коттедж.	Deluxe Cottage Hillside;21;45;2+1;SV, GV, HSV#Premier Villa Hillside;9;55;2+1;SV, GV, HSV#Duplex Villa Suite;1;126;2+1;SV, GV, HSV	Балкон#Терраса#Внешняя зона отдыха (стол, стулья; кроме Deluxe) #Индивидуальный кондиционер#Телевизор #Сейф#Стереосистема#Интернет (Wi-Fi)#Мини-бар — $#Холодильник#Набор для приготовления кофе и чая#Халат и тапочки#Фен#Душ#Зеркало для макияжа#Джакузи (кроме Deluxe)#Туалетные принадлежности#Свежие фрукты по прибытии#Напольное покрытие — дерево#Отделка ванной — бетон	Сейф на ресепшен, обмен валют#Спа-центр — $#Интернет-кафе, Интернет (Wi-Fi)#Кинотеатр — $#Прачечная — $#Трансфер до материка, парковка#Камеры хранения багажа#Курсы тайской кухни — $	Один открытый бассейн	Массаж — $#Бар — $, охрана#Полотенца #Шезлонги, зонтики#	!empty!	Детская кроватка (по запросу)#Услуги няни — $	O Restaurant;07:00 – 23:00;Завтраки; итальянская#The Buzz;10:00 – 23:00;Тайская#Бар у бассейна;08:00 – 20:00;Бар	Школа дайвинга — $#Фитнес-центр	Один открытый бассейн	Массаж — $#Бар — $, охрана#Полотенца #Шезлонги, зонтики#	Visa, MasterСard, American Express	Нет	!empty!	Этот бутик-отель расположен в красивом тропическом саду с выходом на белоснежный пляж. Особенно понравится молодоженам и семейным парам.#В перечне услуг — большой выбор водных видов спорта.		S:\PRINT PRODUCTION\2015\CATALOGUE 2016\!COLLECT\03 EXOTIC\Links\4+samed_r.eps	S:\PRINT PRODUCTION\2015\CATALOGUE 2016\!COLLECT\03 EXOTIC\Links\01_time_r.eps	S:\PRINT PRODUCTION\2015\CATALOGUE 2016\!COLLECT\03 EXOTIC\Links\04_beach_r.eps							S:\PRINT PRODUCTION\2015\CATALOGUE 2016\!COLLECT\03 EXOTIC\Links\12_honey_r.eps			S:\PRINT PRODUCTION\2015\CATALOGUE 2016\!COLLECT\03 EXOTIC\Links\15_relax_r.eps	!empty!	!empty!	!empty!	14:00	12:00	0	LE VIMARN COTTAGES & SPA
388	AO PHRAO	www.samedresorts.com/aoprao	Открыт в 1997 году, частично реновирован в 2014-м. Расположен в 3 часах езды от Бангкока, на западном побережье острова Самед, в 10 минутах от пляжа Сай Кео, на пляже Ao Прао, на берегу моря. Включает 57 бунгало.	Deluxe Hillside;30;30;2+1;HSV/GV#Deluxe Cottage;8;33;2+1;HSV/GV#Deluxe Cottage Seaview;15;33;2+1;SV/HSV#Beach Front Cottage;4;35;2+1;SV/HSV	Балкон#Внешняя зона отдыха (стол, стулья)#Индивидуальный кондиционер#Сейф #Телевизор, стереосистема#Интернет (Wi-Fi), телефон#Мини-бар — $#Холодильник#Набор для приготовления кофе и чая#Халат и тапочки, фен#Душ, ванна, зеркало для макияжа#Косметика в номере#Туалетные принадлежности#Свежие фрукты по прибытии#Напольное покрытие — дерево#Отделка ванной — цемент	Сейф на ресепшен, обмен валют#Интернет-кафе#Интернет (Wi-Fi – в лобби, ресторане)#Прачечная — $, сувенирный магазин#Камеры хранения багажа#Транспорт от отеля, парковка#Курсы тайской кухни — $	Один открытый бассейн для взрослых и детей	Бар — $, охрана#Полотенца, шезлонги, зонтики	Meeting Room;120;80;60;60;80;40	Детская кроватка#Услуги няни — $	Breeze;07:00 – 23:00;Eвропейская, тайская, морепродукты, BBQ#Бар у бассейна;08:00 – 20:00;Бар	Школа дайвинга — $	Один открытый бассейн для взрослых и детей	Бар — $, охрана#Полотенца, шезлонги, зонтики	Visa, MasterСard, American Express	Нет	!empty!	Отель расположен в очень живописной бухте. Идеально подходит для уединения. Рекомендован для молодых пар.		S:\PRINT PRODUCTION\2015\CATALOGUE 2016\!COLLECT\03 EXOTIC\Links\4samed.eps	S:\PRINT PRODUCTION\2015\CATALOGUE 2016\!COLLECT\03 EXOTIC\Links\01_time.eps	S:\PRINT PRODUCTION\2015\CATALOGUE 2016\!COLLECT\03 EXOTIC\Links\04_beach.eps			S:\PRINT PRODUCTION\2015\CATALOGUE 2016\!COLLECT\03 EXOTIC\Links\08_refresh.eps				S:\PRINT PRODUCTION\2015\CATALOGUE 2016\!COLLECT\03 EXOTIC\Links\12_honey.eps			S:\PRINT PRODUCTION\2015\CATALOGUE 2016\!COLLECT\03 EXOTIC\Links\15_relax.eps	!empty!	!empty!	2014	14:00	12:00	0	AO PRAO RESORT
3410	SAI KAEW	www.limaresort.co.th	Отель расположен в 3 часах езды от Бангкока, на северо-восточном побережье острова Самед, на популярном пляже Сай Кео, в трех минутах ходьбы от моря. Состоит из нескольких корпусов. Оформлен в современном тайском стиле. Всего 26 номеров.	Family Suite;1;—;2+2;GV#Grande Bella Deluxe;10;—;2+1;GV#Pool Deluxe;6;—;2+1;GV#Loft Deluxe;8;—;2+1;GV	Балкон (Grande Bella Deluxe)#Терраса (Family Suite, Pool Deluxe)#Внешняя зона отдыха (Pool Deluxe)#Индивидуальный кондиционер#Сейф#Телевизор#Интернет (Wi-Fi)#Холодильник#Фен, душ#Ванна (Family Suite, Pool Deluxe)#Зеркало для макияжа#Туалетные принадлежности#Напольное покрытие в спальне — плитка; отделка ванной — плитка	Массаж – $#Камеры хранения багажа#Аренда автомобиля – $#Транспорт от отеля – $	Один открытый бассейн для взрослых и детей (глубина — 1.3 м)	Полотенца#Шезлонги	!empty!	!empty!	Limabella Restaurant;08:00 – 22:00;Завтраки; меню а-ля карт	Водные виды спорта – $#Прокат велосипедов – $	Один открытый бассейн для взрослых и детей (глубина — 1.3 м)	Полотенца#Шезлонги	Visa, MasterCard	Нет	!empty!	Отель Lima Bella находится в 3 минутах ходьбы от пляжа Сай Кео, окружен тропическим садом. К услугам гостей – номера в современном тайском стиле, открытый бассейн и бесплатный Wi-Fi. Ресторан предлагает различные блюда международной кухни.		S:\PRINT PRODUCTION\2015\CATALOGUE 2016\!COLLECT\03 EXOTIC\Links\3+samed_r.eps	S:\PRINT PRODUCTION\2015\CATALOGUE 2016\!COLLECT\03 EXOTIC\Links\01_time_r.eps	S:\PRINT PRODUCTION\2015\CATALOGUE 2016\!COLLECT\03 EXOTIC\Links\02_road_r.eps							S:\PRINT PRODUCTION\2015\CATALOGUE 2016\!COLLECT\03 EXOTIC\Links\12_honey_r.eps				500 м	!empty!	!empty!	13:00	11:30	0	LIMA BELLA RESORT
397	SAI KAEW	www.samedresorts.com/saikaew/	Открыт в 2000 году, частично реновирован в 2010-м (Premier Zone). Расположен в 3 часах езды от Бангкока, на северо-восточном побережье острова Самед, на берегу моря. Включает 2-этажные корпуса и 1-этажные коттеджи. Всего 158 номеров.	Deluxe Room;33;30;2+1;GV#Deluxe Cottage;35;33;2+1;GV#Beach Front Cottage;2;35;2+1;SV & GV#Premier Room;59;45;2+1;PV#Premier Seaside;20;48;2+1;PV#Pool Side Villa;6;54;2+1;PV#Beach Front Villa;2;80;2+1;SV	Балкон#Внешняя зона отдыха (некоторые номера)#Индивидуальный кондиционер#Сейф, телефон#Стереосистема#Интернет (Wi-Fi)#Мини-бар — $ #Холодильник#Набор для приготовления кофе и чая#Халат и тапочки, фен#Душ, ванна (номера Villa, Premier Seaside)#Туалетные принадлежности#Зеркало для макияжа#Свежие фрукты ежедневно#Напольное покрытие — ламинат#Отделка ванной — бетон	Обмен валют, сейф на ресепшен#Спа-центр — $#Салон красоты — $#Массаж — $#Интернет (Wi-Fi)#Прачечная — $#Камеры хранения багажа#Транспорт от отеля#Парковка#Cувенирный магазин	Один открытый бассейн	Бар — $, охрана#Полотенца, шезлонги, зонтики	Leelawadee;—;120;80;—;100;60#Laluna;—;60;40;—;70;30	Детская кроватка#Услуги няни — $	The Zea Restaurant;07:00 – 23:00;Тайская, международная#The Mango;08:00 – 20:00;Кофе, выпечка#Z Bar;10:00 – 23:00;Прохладительные напитки	Школа дайвинга — $#Фитнес-центр	Один открытый бассейн	Бар — $, охрана#Полотенца, шезлонги, зонтики	Visa, MasterСard, American Express	Нет	!empty!	Отель расположен на одном из лучших пляжей острова, вблизи ресторанов и баров. К услугам гостей предлагаются разные водные виды спорта. Рекомендован для тех, кто любит совмещать активный и пляжный отдых.		S:\PRINT PRODUCTION\2015\CATALOGUE 2016\!COLLECT\03 EXOTIC\Links\3+samed.eps	S:\PRINT PRODUCTION\2015\CATALOGUE 2016\!COLLECT\03 EXOTIC\Links\01_time.eps	S:\PRINT PRODUCTION\2015\CATALOGUE 2016\!COLLECT\03 EXOTIC\Links\04_beach.eps			S:\PRINT PRODUCTION\2015\CATALOGUE 2016\!COLLECT\03 EXOTIC\Links\08_refresh.eps				S:\PRINT PRODUCTION\2015\CATALOGUE 2016\!COLLECT\03 EXOTIC\Links\12_honey.eps		S:\PRINT PRODUCTION\2015\CATALOGUE 2016\!COLLECT\03 EXOTIC\Links\14_active.eps		!empty!	!empty!	2010	14:00	12:00	0	SAI KAEW BEACH RESORT
401	AO PHAI	www.samedpavilionresort.com	Открыт в 2011 году, частично реновирован в 2012-м. Расположен на острове Самед, в 200 км от аэропорта Суванапум (Бангкок), в 45 минутах плавания на пароме от материка, на популярном пляже Ао Пхай. Включает несколько 2- и 3-этажных зданий в современном стиле, каждое из которых имеет собственное название: Bird Paradise, Orchid, Water Lily, Murraya. Всего 82 номера.	Deluxe Double Room;40;28.45;2+1;–#Deluxe Triple Room;18;32.25;3+1;MV#Deluxe Family Room;20;36.75;4+1;PV#Cattleya Suite;1;60;4+1;GV	Гостиная (Cattleya Suite)#Балкон#Внешняя зона отдыха (стол, стулья)#Индивидуальный кондиционер#Сейф#Телевизор (русские каналы)#Интернет (Wi-Fi)#Утюг — $#Мини-бар — $#Холодильник#Набор для приготовления кофе и чая#Душ, фен#Зеркало для макияжа#Туалетные принадлежности#Гипоаллергенная подушка#Напольное покрытие в спальне — дерево#Отделка ванной — плитка	Обмен валют#Массаж — $#Медицинские услуги — $#Джакузи#Интернет-кафе#Интернет (Wi-Fi)#Почта, курьер — $#Прачечная — $#Аренда автомобиля — $#Парковка#Камеры хранения багажа#Сувенирный магазин — $	Один открытый бассейн для взрослых (55 м2, глубина — 1.2 м) и один для детей (20 м2, глубина — 0.6 м)	Бар — $#Кафе — $#Охрана#Полотенца#Шезлонги#Зонтики	Jasmine Hall;168;80;40;40;60;40	Детская кроватка#Услуги няни — $	Pavilion Restaurant;07:00 – 22:00;Международная#Бар у бассейна;10:00 – 22:00;Бар#Бар в лобби;10:00 – 22:00;Бар	Водные виды спорта — $	Один открытый бассейн для взрослых (55 м2, глубина — 1.2 м) и один для детей (20 м2, глубина — 0.6 м)	Бар — $#Кафе — $#Охрана#Полотенца#Шезлонги#Зонтики	Visa, MasterCard, American Express, Diners, JCB	Нет	Mr. Roy Estolano	Отель отличается удобным расположением: находится всего в нескольких минутах ходьбы от деревни с барами, ресторанами и местами активной ночной жизни. У каждого номера своя цветовая гамма.		S:\PRINT PRODUCTION\2015\CATALOGUE 2016\!COLLECT\03 EXOTIC\Links\3+samed_r.eps	S:\PRINT PRODUCTION\2015\CATALOGUE 2016\!COLLECT\03 EXOTIC\Links\01_time_r.eps	S:\PRINT PRODUCTION\2015\CATALOGUE 2016\!COLLECT\03 EXOTIC\Links\04_beach_r.eps		S:\PRINT PRODUCTION\2015\CATALOGUE 2016\!COLLECT\03 EXOTIC\Links\07_build_r.eps	S:\PRINT PRODUCTION\2015\CATALOGUE 2016\!COLLECT\03 EXOTIC\Links\08_refresh_r.eps					S:\PRINT PRODUCTION\2015\CATALOGUE 2016\!COLLECT\03 EXOTIC\Links\13_famaly_r.eps			!empty!	!empty!	2012	14:00	12:00	0	SAMED PAVILION RESORT & RESTAURANT
3414	AO WAI	www.sametvilleresort.com	Отель открыт в 1975 году, реновирован в 2013-м. Расположен в 3 часах езды от Бангкока, на побережье острова Самед, в бухте Ао Вай. Представляет собой комплекс уютных вилл и коттеджей. Всего 77 номеров.	Standard Room;22;—;2+1;GV#Private Cottage;15;—;2+1;GV#Private Beachfront Cottage;1;—;2+1;SV#Ao Wai Room;10;—;2+1;GV#Superior Cottage;7;—;2+1;GV/SV#Sea-Breeze Room 1;2;—;2+1;SV#Sea-Breeze Room 2;4;—;2+1;SV#Honeymoon Villa;2;—;2+1;SV#Family Room;4;—;2+2;SV	Терраса#Внешняя зона отдыха#Индивидуальный кондиционер#Набор для приготовления кофе и чая (Honeymoon Villa)#Холодильник#Ванна (Honeymoon Villa)#Душ#Зеркало для макияжа#Сейф	Интернет (Wi-Fi)	Один открытый бассейн для взрослых и детей (7х17 м, глубина – 0.8-1.9 м)	Полотенца #Шезлонги#	Meeting Room;250;150;150;150;—;—	Детские стулья в ресторане#Детская площадка	Chom Talay Restaurant;07:30 – 22:30;Тайская, международная	!empty!	Один открытый бассейн для взрослых и детей (7х17 м, глубина – 0.8-1.9 м)	Полотенца #Шезлонги#	Visa, MasterCard	Нет	!empty!	Пожалуй, один из самых уединенных отелей на острове. Белоснежный песок, прозрачные воды залива — идеальное место для тех, кто устал от повседневной суеты и ищет спокойствие и умиротворение.		S:\PRINT PRODUCTION\2015\CATALOGUE 2016\!COLLECT\03 EXOTIC\Links\3+samed.eps	S:\PRINT PRODUCTION\2015\CATALOGUE 2016\!COLLECT\03 EXOTIC\Links\01_time.eps	S:\PRINT PRODUCTION\2015\CATALOGUE 2016\!COLLECT\03 EXOTIC\Links\04_beach.eps			S:\PRINT PRODUCTION\2015\CATALOGUE 2016\!COLLECT\03 EXOTIC\Links\08_refresh.eps							S:\PRINT PRODUCTION\2015\CATALOGUE 2016\!COLLECT\03 EXOTIC\Links\15_relax.eps	!empty!	!empty!	!empty!	14:00	12:00	0	SAMET VILLE RESORT
389	AO CHO	www.grandviewgroupresort.com	Открыт в 2006 году, реновирован в 2014-м. Расположен в 205 км от аэропорта Суванапум (Бангкок), на острове Самед, в уединенном месте, на песчаном пляже. Всего 33 номера, оформленных в тайском стиле.	Superior Garden View;11;32;3+1;GV#Deluxe Hillside;12;32;3+1;PSV/GV#Suite Ocean Front;6;50;3+1;SV#Deluxe Grand;2;48;5+1;PSV/GV#Superior Grand;2;46;5+1;GV	Балкон#Терраса#Внешняя зона отдыха (стол, стулья)#Индивидуальный кондиционер#Сейф (кроме Superior Garden View)#Tелевизор (русские каналы)#Стереосистема (Suite Ocean Front)#Интернет (Wi-Fi)#Мини-бар – $#Холодильник#Халат и тапочки#Фен, зеркало для макияжа#Ванна (Suite Ocean Front)#Душ#Зеркало для макияжа#Туалетные принадлежности #Свежие фрукты по прибытии (Suite Ocean Front)#Напольное покрытие – ковролин#Отделка ванной – плитка	Сейф на ресепшен — $#Массаж — $#Интернет (Wi-Fi) — $#Парковка	!empty!	!empty!	!empty!	Детская кроватка	Retro Beach Bar and Restaurant;10:00 – 22:00;Тайская, европейская, морепродукты#Retro Bar;10:00 – 21:00;Бар на пляже	Водные виды спорта — $#Мини-футбол	!empty!	!empty!	Visa, MasterСard, American Express	Наличными; 500 THB	Mr. Ruengnarong Ketpinit	Место расположения отеля прекрасно подходит для туристов, ищущих уединения и спокойствия. Стандартные удобства обеспечивают комфортное пребывание в каждом из 33 прекрасно обставленных номеров.		S:\PRINT PRODUCTION\2015\CATALOGUE 2016\!COLLECT\03 EXOTIC\Links\3samed_r.eps	S:\PRINT PRODUCTION\2015\CATALOGUE 2016\!COLLECT\03 EXOTIC\Links\01_time_r.eps	S:\PRINT PRODUCTION\2015\CATALOGUE 2016\!COLLECT\03 EXOTIC\Links\04_beach_r.eps			S:\PRINT PRODUCTION\2015\CATALOGUE 2016\!COLLECT\03 EXOTIC\Links\08_refresh_r.eps				S:\PRINT PRODUCTION\2015\CATALOGUE 2016\!COLLECT\03 EXOTIC\Links\12_honey_r.eps			S:\PRINT PRODUCTION\2015\CATALOGUE 2016\!COLLECT\03 EXOTIC\Links\15_relax_r.eps	!empty!	!empty!	2014	14:00	12:00	0	Ao Cho Grandview Hideaway Resort
3408	AO NOI NA	www.samedresorts.com/baanploy	Открыт в 2011 году. Расположен в 3 часах езды от Бангкока, на северном побережье острова Самед, на берегу моря. Представляет собой 2-этажное здание. Оформлен в современном тайском стиле. Всего 16 номеров.	Deluxe Room;2;40;2+1;MV#Deluxe Seaview Room;12;40;2+1;SV#Deluxe Suite;2;45;2+1;SV	Балкон#Индивидуальный кондиционер#Телевизор, сейф#Интернет (Wi-Fi)#Холодильник#Набор для приготовления кофе и чая#Халат и тапочки#Фен#Душ#Туалетные принадлежности#Свежие фрукты по прибытии#Напольное покрытие в спальне — дерево #Отделка ванной — бетон	Массаж — $#Интернет (Wi-Fi)#Сувенирный магазин#Транспорт от отеля, парковка	Один открытый бассейн	Бар — $#Охрана#Полотенца#Шезлонги, зонтики	!empty!	Детская кроватка#Услуги няни — $	Baan Ploy Samed;—;Тайская, морепродукты	Водные виды спорта – $#	Один открытый бассейн	Бар — $#Охрана#Полотенца#Шезлонги, зонтики	Visa, MasterCard, American Express	Нет	!empty!	К услугам гостей предлагаются современные номера с отделкой деревом. Отель расположен прямо на берегу песчаного пляжа, что несомненно понравится любителям пляжного отдыха.		S:\PRINT PRODUCTION\2015\CATALOGUE 2016\!COLLECT\03 EXOTIC\Links\3samed.eps	S:\PRINT PRODUCTION\2015\CATALOGUE 2016\!COLLECT\03 EXOTIC\Links\01_time.eps	S:\PRINT PRODUCTION\2015\CATALOGUE 2016\!COLLECT\03 EXOTIC\Links\04_beach.eps		S:\PRINT PRODUCTION\2015\CATALOGUE 2016\!COLLECT\03 EXOTIC\Links\07_build.eps									!empty!	2011	!empty!	14:00	12:00	0	BAAN PLOY SEA
390	LAEM YAI	www.leblancsamed.com	Открыт в 2009 году, реновирован в 2012-м (номера). Расположен в 204 км от аэропорта Суванапум (Бангкок), на острове Самед, на пляже Лэм Яй. Включает бунгало и коттеджи. Всего 55 номеров.	Standard;10;–;2+1;GV#Sea View;9;–;2+1;SV#Le Blanс;25;–;2+1;SV#Garden;11;–;2+1;GV	Балкон#Индивидуальный кондиционер#Телевизор#Интернет (Wi-Fi)#Холодильник#Фен (Sea View, Le Blanс), душ#Зеркало для макияжа (Standard)#Напольное покрытие в спальне — плитка#Отделка ванной — плитка	Сейф на ресепшен#Массаж — $#Интернет (Wi-Fi)#Аренда автомобиля — $#Сувенирный магазин	!empty!	!empty!	!empty!	Детское меню	Le Blanc Restaurant;–;Eвропейская, тайская, морепродукты#Бар в лобби;06:00 – 22:00;Бар	Cноркелинг – $#Рыбалка – $#Парусный спорт – $	!empty!	!empty!	Visa, MasterCard	Депозит только за ключи — 200 THB	Ms. Nayada Ratanabhum	Гостиница находится в красивом месте на восточном побережье острова Самед. Замечательный уголок для безмятежного отдыха на белоснежном песчаном пляже.		S:\PRINT PRODUCTION\2015\CATALOGUE 2016\!COLLECT\03 EXOTIC\Links\3samed_r.eps	S:\PRINT PRODUCTION\2015\CATALOGUE 2016\!COLLECT\03 EXOTIC\Links\01_time_r.eps	S:\PRINT PRODUCTION\2015\CATALOGUE 2016\!COLLECT\03 EXOTIC\Links\04_beach_r.eps			S:\PRINT PRODUCTION\2015\CATALOGUE 2016\!COLLECT\03 EXOTIC\Links\08_refresh_r.eps		S:\PRINT PRODUCTION\2015\CATALOGUE 2016\!COLLECT\03 EXOTIC\Links\10_low_r.eps		S:\PRINT PRODUCTION\2015\CATALOGUE 2016\!COLLECT\03 EXOTIC\Links\12_honey_r.eps				!empty!	!empty!	2012	14:00	12:00	0	LE BLANC SAMED RESORT
3412	AO WONG DUAN	www.samedcabana.com	Открыт в 2009 году, реновирован в 2014-м. Расположен в 3 часах езды от Бангкока, в 15 минутах плавания на лодке от пирса Районга, на побережье моря. Состоит из 2-этажных вилл и бунгало. Всего 50 номеров.	Superior;6;25;2+1;GV#Seaview;14;25;2+1;SV#Pool Side;12;30;2+1;PV#Beach Front;16;25;2+1;SV#Family;2;50;2+2;GV	Балкон#Внешняя зона отдыха (стол, стулья)#Индивидуальный кондиционер#Сейф #Телевизор#Холодильник#Набор для приготовления кофе и чая#Душ, фен#Зеркало для макияжа#Туалетные принадлежности	Массаж — $#Медицинские услуги — $#Интернет (Wi-Fi), библиотека#Прачечная — $#Утюг#Транспорт от отеля — $ #Камеры хранения багажа#Мини-маркет	Один открытый бассейн для взрослых и детей	Массаж — $#Полотенца, шезлонги, зонтики	Meeting Room;—;150;80;—;—;—	Детская кроватка#	Restaurant;07:30 – 22:00;Тайская, морепродукты	!empty!	Один открытый бассейн для взрослых и детей	Массаж — $#Полотенца, шезлонги, зонтики	Visa, MasterCard	Нет	!empty!	Отель буквально утопает в пышной тропической зелени на пляже с белоснежным песком. Предлагает гостям просторные номера с балконами. Подойдет для любителей пляжного отдыха.		S:\PRINT PRODUCTION\2015\CATALOGUE 2016\!COLLECT\03 EXOTIC\Links\3samed.eps	S:\PRINT PRODUCTION\2015\CATALOGUE 2016\!COLLECT\03 EXOTIC\Links\01_time.eps	S:\PRINT PRODUCTION\2015\CATALOGUE 2016\!COLLECT\03 EXOTIC\Links\04_beach.eps			S:\PRINT PRODUCTION\2015\CATALOGUE 2016\!COLLECT\03 EXOTIC\Links\08_refresh.eps								!empty!	!empty!	2014	14:00	12:00	0	SAMED CABANA RESORT
398	AO NOI NA	www.samedresorts.com/samedclub/	Открыт в 2007 году. Расположен в северной части острова Самед, в 3 часах езды от Бангкока, на пляже Ао Нойна, на берегу моря. Отель небольшой, уютный, с видами на море и сад. Очарования добавляют великолепные окрестные пейзажи и бассейн на фоне зеленого склона холма. Комплекс включает 2-этажные шале и коттеджи. Всего 30 номеров.	Garden Cottage;4;28;3/2+1;GV#Deluxe Cottage;10;30;3/2+1;GV#Deluxe Hill;8;30;3/2+1;GV/HSV#Beachfront Cottage;2;28;3/2+1;SV#Deluxe Room;6;33;3/2+1;PV	Терраса#Внешняя зона отдыха (стол, стулья)#Индивидуальный кондиционер#Телевизор #Стереосистема#Интернет (LAN)#Телефон#Мини-бар — $#Холодильник#Набор для приготовления кофе и чая#Халат и тапочки#Душ, фен#Зеркало для макияжа#Туалетные принадлежности#Гипоаллергенная подушка#Свежие фрукты по прибытии#Напольное покрытие — фреска#Отделка ванной — фреска	Интернет (Wi-Fi – в лобби)#Прачечная — $#Камеры хранения багажа#Трансферы до материка, до Бангкока, по острову — $#Парковка	Один открытый бассейн для взрослых и детей	Бар — $#Полотенца, шезлонги, зонтики	!empty!	!empty!	The Rice;07:00 – 23:00;Tайская, морепродукты, вегетарианская#Бар в лобби;—;Бар	Водные виды спорта — $#	Один открытый бассейн для взрослых и детей	Бар — $#Полотенца, шезлонги, зонтики	Visa, MasterCard, American Express	Нет	!empty!	Отель Samed Club расположен в более тихой части острова Самед, на территории национального парка Кхао Лэм Я, где можно отдохнуть от городской суеты. Бунгало и коттеджи отеля Samed Club оформлены в строгом и современном стиле. Рекомендован для уединенного отдыха.#		S:\PRINT PRODUCTION\2015\CATALOGUE 2016\!COLLECT\03 EXOTIC\Links\3samed_r.eps	S:\PRINT PRODUCTION\2015\CATALOGUE 2016\!COLLECT\03 EXOTIC\Links\01_time_r.eps	S:\PRINT PRODUCTION\2015\CATALOGUE 2016\!COLLECT\03 EXOTIC\Links\04_beach_r.eps										S:\PRINT PRODUCTION\2015\CATALOGUE 2016\!COLLECT\03 EXOTIC\Links\15_relax_r.eps	!empty!	!empty!	!empty!	14:00	12:00	0	SAMED CLUB
399	SAI KAEW	www.grandviewgroupresort.com	Открыт в 1999 году, частично реновирован в 2015-м. Расположен в 204 км от аэропорта Суванапум (Бангкок), на острове Самед, на окраине пляжа Сай Кео (в 10 м), в 5 минутах ходьбы от пирса. Поездка на лодке до пирса Бан Пэ, находящегося на пляже Районг, займет 15 минут. Всего 77 номеров, оформленных в современном тайском стиле.	Grand Executive Suite;2;54;3+1;—#Thai House Cottage;11;34;2+1;SV & GV#Deluxe Classic Room;28;38;3+1;GV#Deluxe Room;10;28;2;GV#Superior Garden view;25;28;2+1;GV#Family Room;2;35;5+1;GV#One Studio Room;1;32;6+1;GV#Two Studio Room;1;34;6+1;GV	Балкон, терраса, внешняя зона отдыха (кроме Deluxe Room, Family Room)#Индивидуальный кондиционер#Сейф#Телевизор (русские каналы)#Интернет (Wi-Fi)#Стереосистема, док-станция для iPod (Grand Executive Suite)#Мини-бар — $#Холодильник#Набор для приготовления кофе и чая#Халат и тапочки (в некоторых номерах)#Фен, душ#Ванна (Grand Executive Suite)#Зеркало для макияжа #Туалетные принадлежности#Свежие фрукты (Grand Executive Suite)#Напольное покрытие – дерево, плитка, ковролин#Отделка ванной – плитка	Сейф на ресепшен#Обмен валют#Массаж — $#Интернет (Wi-Fi) — $#Библиотека#Прачечная — $, парковка	!empty!	!empty!	Grand Mirror Hall;110;70;60;50;85;40	Детская кроватка#	De’Grand Restaurant;07:00 – 22:00;Тайская, европейская, морепродукты#De’ Grill Bar & Bistro;11:00 – 18:00;Международная#Finale’Bar;18:00 – 01:00;Бар на пляже	Мини-футбол#Водные виды спорта — $#Дискотека — $	!empty!	!empty!	Visa, MasterСard, American Express	Наличными; 500 THB	Mr. Ruengnarong Ketpinit	Отель обеспечивает отличный отдых среди сказочной природы тропического острова. Для размещения предлагаются современные номера в тайском стиле.		S:\PRINT PRODUCTION\2015\CATALOGUE 2016\!COLLECT\03 EXOTIC\Links\3samed.eps	S:\PRINT PRODUCTION\2015\CATALOGUE 2016\!COLLECT\03 EXOTIC\Links\01_time.eps	S:\PRINT PRODUCTION\2015\CATALOGUE 2016\!COLLECT\03 EXOTIC\Links\04_beach.eps			S:\PRINT PRODUCTION\2015\CATALOGUE 2016\!COLLECT\03 EXOTIC\Links\08_refresh.eps								!empty!	!empty!	2015	14:00	12:00	0	SAMED GRAND VIEW RESORT
4012	AO WONG DUAN	www.lalunebeachresort.com	Открыт в 2012 году, частично реновирован в 2014-м. Расположен в 3 часах езды от Бангкока, на острове Самед, на берегу моря. Включает два корпуса высотой 2 и 3 этажа. Оформлен в современном стиле. Всего 44 номера.	Deluxe;44;28;2+1;PV	Балкон#Внешняя зона отдыха (стол, стулья)#Индивидуальный кондиционер#Сейф #Телевизор#Холодильник#Набор для приготовления кофе и чая#Душ, фен#Зеркало для макияжа#Туалетные принадлежности	Интернет (Wi-Fi)#Библиотека#Прачечная — $, утюг#Камеры хранения багажа#Мини-маркет#Сувенирный магазин	Один открытый бассейн для взрослых и детей	Полотенца#Шезлонги, зонтики	!empty!	Детская кроватка#	Restaurant;07:30 – 22:00;Международная	Водные виды спорта — $#	Один открытый бассейн для взрослых и детей	Полотенца#Шезлонги, зонтики	Visa, MasterCard	Нет	!empty!	Современный отель расположен прямо на берегу моря. Предлагает гостям комфортное размещение. Подойдет для молодежного отдыха.		S:\PRINT PRODUCTION\2015\CATALOGUE 2016\!COLLECT\03 EXOTIC\Links\3samed_r.eps	S:\PRINT PRODUCTION\2015\CATALOGUE 2016\!COLLECT\03 EXOTIC\Links\01_time_r.eps	S:\PRINT PRODUCTION\2015\CATALOGUE 2016\!COLLECT\03 EXOTIC\Links\04_beach_r.eps		S:\PRINT PRODUCTION\2015\CATALOGUE 2016\!COLLECT\03 EXOTIC\Links\07_build_r.eps	S:\PRINT PRODUCTION\2015\CATALOGUE 2016\!COLLECT\03 EXOTIC\Links\08_refresh_r.eps								!empty!	2012	2014	14:00	12:00	0	LA LUNE BEACH RESORT
1837	AO PHAI	www.leblancsamed.com	Открыт в 2013 году. Расположен в 200 км от аэропорта Суванапум (Бангкок), на пляже острова Самед, на склоне холма, что позволяет из всех номеров наслаждаться видом на море. Состоит из бунгало. Всего 40 номеров.	Standard Room;20;28;2+1;SV/GV#Family Room (4 Pax);10;36;4+1;SV/GV#Family Room (6 Pax);10;40;6;SV/GV	Балкон, терраса#Внешняя зона отдыха (стол, стулья)#Индивидуальный кондиционер#Телевизор, холодильник#Интернет (Wi-Fi)#Утюг, гладильная доска#Набор для приготовления кофе и чая#Халат и тапочки#Душ, зеркало для макияжа#Туалетные принадлежности#Гипоаллергенная подушка#Напольное покрытие в спальне — дерево #Отделка ванной — плитка#Разрешено пребывание #с домашними животными	Сейф на ресепшен#Массаж — $#Медицинские услуги — $#Интернет (Wi-Fi)#Почта, курьер#Прачечная — $#Камеры хранения багажа#Мини-маркет, сувенирный магазин	!empty!	!empty!	!empty!	!empty!	Le Blanc Restaurant;07:00 – 22:00;Европейская, тайская, вегетарианская, морепродукты#Le Blanc Bar;10:00 – 23:00;Бар в лобби	Дискотека#Парусный спорт — $#Водные виды спорта — $	!empty!	!empty!	Visa, MasterCard	Нет	Ms. Jirat Thannidchirachotpakin	Отель расположен неподалеку от основных мест развлечений на острове. Предлагает размещение в бунгало с легким доступом к пляжу. Подходит для спокойного, размеренного отдыха.		S:\PRINT PRODUCTION\2015\CATALOGUE 2016\!COLLECT\03 EXOTIC\Links\2samed.eps	S:\PRINT PRODUCTION\2015\CATALOGUE 2016\!COLLECT\03 EXOTIC\Links\01_time.eps	S:\PRINT PRODUCTION\2015\CATALOGUE 2016\!COLLECT\03 EXOTIC\Links\04_beach.eps		S:\PRINT PRODUCTION\2015\CATALOGUE 2016\!COLLECT\03 EXOTIC\Links\07_build.eps			S:\PRINT PRODUCTION\2015\CATALOGUE 2016\!COLLECT\03 EXOTIC\Links\10_low.eps					S:\PRINT PRODUCTION\2015\CATALOGUE 2016\!COLLECT\03 EXOTIC\Links\15_relax.eps	!empty!	2013	!empty!	14:00	12:00	0	LE BLANC VINTAGE HILL RESORT
